[
  {
    "formula": "false",
    "properties": {
      "size": 0,
      "initialStatesSize": 0,
      "acceptanceName": "AllAcceptance",
      "acceptanceSets": 0,
      "complete": false,
      "deterministic": true
    }
  },
  {
    "formula": "true",
    "properties": {
      "size": 1,
      "initialStatesSize": 1,
      "acceptanceName": "AllAcceptance",
      "acceptanceSets": 0,
      "complete": true,
      "deterministic": true
    }
  },
  {
    "formula": "a",
    "properties": {
      "size": 2,
      "initialStatesSize": 1,
      "acceptanceName": "AllAcceptance",
      "acceptanceSets": 0,
      "complete": false,
      "deterministic": true
    }
  },
  {
    "formula": "(a & b)",
    "properties": {
      "size": 2,
      "initialStatesSize": 1,
      "acceptanceName": "AllAcceptance",
      "acceptanceSets": 0,
      "complete": false,
      "deterministic": true
    }
  },
  {
    "formula": "(a | b)",
    "properties": {
      "size": 2,
      "initialStatesSize": 1,
      "acceptanceName": "AllAcceptance",
      "acceptanceSets": 0,
      "complete": false,
      "deterministic": true
    }
  },
  {
    "formula": "(a <-> b)"
  },
  {
    "formula": "Fa"
  },
  {
    "formula": "Ga",
    "properties": {
      "size": 1,
      "initialStatesSize": 1,
      "acceptanceName": "AllAcceptance",
      "acceptanceSets": 0,
      "complete": false,
      "deterministic": true
    }
  },
  {
    "formula": "Xa",
    "properties": {
      "size": 3,
      "initialStatesSize": 1,
      "acceptanceName": "AllAcceptance",
      "acceptanceSets": 0,
      "complete": false,
      "deterministic": true
    }
  },
  {
    "formula": "((a) M (b))"
  },
  {
    "formula": "((a) R (b))",
    "properties": {
      "size": 2,
      "initialStatesSize": 1,
      "acceptanceName": "AllAcceptance",
      "acceptanceSets": 0,
      "complete": false,
      "deterministic": true
    }
  },
  {
    "formula": "((a) U (b))"
  },
  {
    "formula": "((a) W (b))",
    "properties": {
      "size": 2,
      "initialStatesSize": 1,
      "acceptanceName": "AllAcceptance",
      "acceptanceSets": 0,
      "complete": false,
      "deterministic": true
    }
  },
  {
    "formula": "(a & F!a)"
  },
  {
    "formula": "(a & ((b) R (a)))",
    "properties": {
      "size": 3,
      "initialStatesSize": 1,
      "acceptanceName": "AllAcceptance",
      "acceptanceSets": 0,
      "complete": false,
      "deterministic": true
    }
  },
  {
    "formula": "(!a & Fa)"
  },
  {
    "formula": "((a | b) & (!a | !b))",
    "properties": {
      "size": 2,
      "initialStatesSize": 1,
      "acceptanceName": "AllAcceptance",
      "acceptanceSets": 0,
      "complete": false,
      "deterministic": true
    }
  },
  {
    "formula": "((a | !b) & (!a | b))",
    "properties": {
      "size": 2,
      "initialStatesSize": 1,
      "acceptanceName": "AllAcceptance",
      "acceptanceSets": 0,
      "complete": false,
      "deterministic": true
    }
  },
  {
    "formula": "((a <-> b) & G!b)"
  },
  {
    "formula": "(Fa & F!a)"
  },
  {
    "formula": "(Fa & Fb)"
  },
  {
    "formula": "(Fa & Gb)"
  },
  {
    "formula": "(Fa & Xb)"
  },
  {
    "formula": "(Fa & ((b) R (!a)))"
  },
  {
    "formula": "(Ga & Gb)",
    "properties": {
      "size": 1,
      "initialStatesSize": 1,
      "acceptanceName": "AllAcceptance",
      "acceptanceSets": 0,
      "complete": false,
      "deterministic": true
    }
  },
  {
    "formula": "(Ga & Xb)",
    "properties": {
      "size": 3,
      "initialStatesSize": 1,
      "acceptanceName": "AllAcceptance",
      "acceptanceSets": 0,
      "complete": false,
      "deterministic": true
    }
  },
  {
    "formula": "(((a) M (b)) & ((c) U (d)))"
  },
  {
    "formula": "(a | ((b) U (a)))"
  },
  {
    "formula": "(!a | Ga)",
    "properties": {
      "size": 3,
      "initialStatesSize": 2,
      "acceptanceName": "AllAcceptance",
      "acceptanceSets": 0,
      "complete": false,
      "deterministic": false
    }
  },
  {
    "formula": "((a & b) | (!a & !b))",
    "properties": {
      "size": 2,
      "initialStatesSize": 1,
      "acceptanceName": "AllAcceptance",
      "acceptanceSets": 0,
      "complete": false,
      "deterministic": true
    }
  },
  {
    "formula": "((a & !b) | (!a & b))",
    "properties": {
      "size": 2,
      "initialStatesSize": 1,
      "acceptanceName": "AllAcceptance",
      "acceptanceSets": 0,
      "complete": false,
      "deterministic": true
    }
  },
  {
    "formula": "((a <-> b) | Fb)"
  },
  {
    "formula": "(Fa | Fb)"
  },
  {
    "formula": "(Fa | Gb)"
  },
  {
    "formula": "(Fa | Xb)"
  },
  {
    "formula": "(Ga | G!a)",
    "properties": {
      "size": 2,
      "initialStatesSize": 2,
      "acceptanceName": "AllAcceptance",
      "acceptanceSets": 0,
      "complete": false,
      "deterministic": false
    }
  },
  {
    "formula": "(Ga | Gb)",
    "properties": {
      "size": 2,
      "initialStatesSize": 2,
      "acceptanceName": "AllAcceptance",
      "acceptanceSets": 0,
      "complete": false,
      "deterministic": false
    }
  },
  {
    "formula": "(Ga | Xb)",
    "properties": {
      "size": 4,
      "initialStatesSize": 2,
      "acceptanceName": "AllAcceptance",
      "acceptanceSets": 0,
      "complete": false,
      "deterministic": false
    }
  },
  {
    "formula": "(G!a | ((b) U (a)))"
  },
  {
    "formula": "(((a) R (b)) | ((c) W (d)))",
    "properties": {
      "size": 3,
      "initialStatesSize": 2,
      "acceptanceName": "AllAcceptance",
      "acceptanceSets": 0,
      "complete": false,
      "deterministic": false
    }
  },
  {
    "formula": "(a <-> Ga)"
  },
  {
    "formula": "(!a <-> Ga)"
  },
  {
    "formula": "F(a & b)"
  },
  {
    "formula": "F(a & b & c & d & e)"
  },
  {
    "formula": "F(a & b & c & d & e & f)"
  },
  {
    "formula": "F(a & b & c & d & e & f & g)"
  },
  {
    "formula": "F(a & b & c & d & e & f & g & h)"
  },
  {
    "formula": "FGa"
  },
  {
    "formula": "G(a | b)",
    "properties": {
      "size": 1,
      "initialStatesSize": 1,
      "acceptanceName": "AllAcceptance",
      "acceptanceSets": 0,
      "complete": false,
      "deterministic": true
    }
  },
  {
    "formula": "G(a | b | c | d | e)",
    "properties": {
      "size": 1,
      "initialStatesSize": 1,
      "acceptanceName": "AllAcceptance",
      "acceptanceSets": 0,
      "complete": false,
      "deterministic": true
    }
  },
  {
    "formula": "G(a | b | c | d | e | f)",
    "properties": {
      "size": 1,
      "initialStatesSize": 1,
      "acceptanceName": "AllAcceptance",
      "acceptanceSets": 0,
      "complete": false,
      "deterministic": true
    }
  },
  {
    "formula": "G(a | b | c | d | e | f | g)",
    "properties": {
      "size": 1,
      "initialStatesSize": 1,
      "acceptanceName": "AllAcceptance",
      "acceptanceSets": 0,
      "complete": false,
      "deterministic": true
    }
  },
  {
    "formula": "G(a | b | c | d | e | f | g | h)",
    "properties": {
      "size": 1,
      "initialStatesSize": 1,
      "acceptanceName": "AllAcceptance",
      "acceptanceSets": 0,
      "complete": false,
      "deterministic": true
    }
  },
  {
    "formula": "GFa"
  },
  {
    "formula": "X(a & b)",
    "properties": {
      "size": 3,
      "initialStatesSize": 1,
      "acceptanceName": "AllAcceptance",
      "acceptanceSets": 0,
      "complete": false,
      "deterministic": true
    }
  },
  {
    "formula": "X(a | b)",
    "properties": {
      "size": 3,
      "initialStatesSize": 1,
      "acceptanceName": "AllAcceptance",
      "acceptanceSets": 0,
      "complete": false,
      "deterministic": true
    }
  },
  {
    "formula": "XFa"
  },
  {
    "formula": "XGa",
    "properties": {
      "size": 2,
      "initialStatesSize": 1,
      "acceptanceName": "AllAcceptance",
      "acceptanceSets": 0,
      "complete": false,
      "deterministic": true
    }
  },
  {
    "formula": "((a) M ((a | b)))"
  },
  {
    "formula": "((a) R ((a | b)))",
    "properties": {
      "size": 2,
      "initialStatesSize": 1,
      "acceptanceName": "AllAcceptance",
      "acceptanceSets": 0,
      "complete": false,
      "deterministic": true
    }
  },
  {
    "formula": "((a) R (((b) R (c))))",
    "properties": {
      "size": 4,
      "initialStatesSize": 1,
      "acceptanceName": "AllAcceptance",
      "acceptanceSets": 0,
      "complete": false,
      "deterministic": true
    }
  },
  {
    "formula": "((Ga) R (Fb))"
  },
  {
    "formula": "((((a) R (b))) R (c))",
    "properties": {
      "size": 3,
      "initialStatesSize": 1,
      "acceptanceName": "AllAcceptance",
      "acceptanceSets": 0,
      "complete": false,
      "deterministic": false
    }
  },
  {
    "formula": "((a) U ((a & b)))"
  },
  {
    "formula": "((a) U (((b) U (c))))"
  },
  {
    "formula": "((Fa) U (Gb))"
  },
  {
    "formula": "((((a) U (b))) U (c))"
  },
  {
    "formula": "((a) W ((a & b)))",
    "properties": {
      "size": 2,
      "initialStatesSize": 1,
      "acceptanceName": "AllAcceptance",
      "acceptanceSets": 0,
      "complete": false,
      "deterministic": true
    }
  },
  {
    "formula": "(a & (Fb | Ga))"
  },
  {
    "formula": "(a & FGa)"
  },
  {
    "formula": "(a & XG!a)",
    "properties": {
      "size": 2,
      "initialStatesSize": 1,
      "acceptanceName": "AllAcceptance",
      "acceptanceSets": 0,
      "complete": false,
      "deterministic": true
    }
  },
  {
    "formula": "(Fa & (a | Gb))"
  },
  {
    "formula": "(Fa & FGa)"
  },
  {
    "formula": "(Fa & GFb)"
  },
  {
    "formula": "(Fa & XF!a)"
  },
  {
    "formula": "(Fa & XFb)"
  },
  {
    "formula": "(Fa & ((((a) R (b))) M (!a)))"
  },
  {
    "formula": "(Fa & ((b) R ((!a & c))))"
  },
  {
    "formula": "(Fa & (((a & b)) R (b)))"
  },
  {
    "formula": "(F!a & XFa)"
  },
  {
    "formula": "(Ga & F(b & c))"
  },
  {
    "formula": "(Ga & G(b | c))",
    "properties": {
      "size": 1,
      "initialStatesSize": 1,
      "acceptanceName": "AllAcceptance",
      "acceptanceSets": 0,
      "complete": false,
      "deterministic": true
    }
  },
  {
    "formula": "(Ga & GFb)"
  },
  {
    "formula": "(G!a & ((a & b) | (!a & !b)))",
    "properties": {
      "size": 2,
      "initialStatesSize": 1,
      "acceptanceName": "AllAcceptance",
      "acceptanceSets": 0,
      "complete": false,
      "deterministic": true
    }
  },
  {
    "formula": "((a | Gb) & GFa)"
  },
  {
    "formula": "((Fa | Gb) & (Fb | Gc))"
  },
  {
    "formula": "((Fa | G!b) & (Fb | G!a))"
  },
  {
    "formula": "(FGa & FGb)"
  },
  {
    "formula": "(FGa & GFa)"
  },
  {
    "formula": "(FGa & GFb)"
  },
  {
    "formula": "(G(a | b) & GFb)"
  },
  {
    "formula": "(G(a | b) & GFc)"
  },
  {
    "formula": "(GFa & GF!a)"
  },
  {
    "formula": "(GFa & GFb)"
  },
  {
    "formula": "(GFa & XGb)"
  },
  {
    "formula": "(Ga & Gb & GFc)"
  },
  {
    "formula": "(Ga & G(b | c) & GFc)"
  },
  {
    "formula": "(Ga & GFb & GFc)"
  },
  {
    "formula": "((Fa | Gb) & (Fb | Gc) & (Fc | Gd))"
  },
  {
    "formula": "(FGa & FGb & FGc)"
  },
  {
    "formula": "(FGa & FGb & GFc)"
  },
  {
    "formula": "(FGa & GFb & GFc)"
  },
  {
    "formula": "(G(a | b) & GFb & GFc)"
  },
  {
    "formula": "(GFa & GFb & GFc)"
  },
  {
    "formula": "(((a) R (((b) R (c)))) & ((b) R (((c) R (a)))) & ((c) R (((a) R (b)))))",
    "properties": {
      "size": 2,
      "initialStatesSize": 1,
      "acceptanceName": "AllAcceptance",
      "acceptanceSets": 0,
      "complete": false,
      "deterministic": true
    }
  },
  {
    "formula": "(Fa & Fb & GFc & GFd)"
  },
  {
    "formula": "(Ga & GFb & GFc & GFd)"
  },
  {
    "formula": "((Fa | Gb) & (Fb | Gc) & (Fc | Gd) & (Fd | Ge))"
  },
  {
    "formula": "(FGa & FGb & FGc & FGd)"
  },
  {
    "formula": "(FGa & GFb & GFc & GFd)"
  },
  {
    "formula": "(GFa & GFb & GFc & GFd)"
  },
  {
    "formula": "(FGa & FGb & FGc & FGd & FGe)"
  },
  {
    "formula": "(FGa & GFb & GFc & GFd & GFe)"
  },
  {
    "formula": "(GFa & GFb & GFc & GFd & GFe)"
  },
  {
    "formula": "(Fa & Fb & Fc & GFd & GFe & GFf)"
  },
  {
    "formula": "(FGa & GFb & GFc & GFd & GFe & GFf)"
  },
  {
    "formula": "(GFa & GFb & GFc & GFd & GFe & GFf & GFg & GFh & GFi)"
  },
  {
    "formula": "(a | (Fa & Gb))"
  },
  {
    "formula": "(a | GFa)"
  },
  {
    "formula": "(!a | XFa)"
  },
  {
    "formula": "(Fa | ((a | b) & (!a | !b)))"
  },
  {
    "formula": "(Fa | F(b & c))"
  },
  {
    "formula": "(Fa | FGb)"
  },
  {
    "formula": "(Fa | G(b | c))"
  },
  {
    "formula": "(Fa | XF!a)"
  },
  {
    "formula": "(F!a | XFa)"
  },
  {
    "formula": "(Ga | (a & Fb))"
  },
  {
    "formula": "(Ga | FGb)"
  },
  {
    "formula": "(Ga | GFa)"
  },
  {
    "formula": "(Ga | XG!a)",
    "properties": {
      "size": 3,
      "initialStatesSize": 2,
      "acceptanceName": "AllAcceptance",
      "acceptanceSets": 0,
      "complete": false,
      "deterministic": false
    }
  },
  {
    "formula": "(Ga | XGb)",
    "properties": {
      "size": 3,
      "initialStatesSize": 2,
      "acceptanceName": "AllAcceptance",
      "acceptanceSets": 0,
      "complete": false,
      "deterministic": false
    }
  },
  {
    "formula": "(Ga | (((a | b)) U (b)))"
  },
  {
    "formula": "(G!a | XGa)",
    "properties": {
      "size": 3,
      "initialStatesSize": 2,
      "acceptanceName": "AllAcceptance",
      "acceptanceSets": 0,
      "complete": false,
      "deterministic": false
    }
  },
  {
    "formula": "(G!a | ((b) U ((a | c))))"
  },
  {
    "formula": "(G!a | ((((!a) U (b))) W (a)))"
  },
  {
    "formula": "((a & Fb) | FGa)"
  },
  {
    "formula": "((Fa & Gb) | (Fc & Ga))"
  },
  {
    "formula": "((Fa & G!b) | (Fb & G!a))"
  },
  {
    "formula": "(F(a & b) | FGb)"
  },
  {
    "formula": "(F(a & b) | FGc)"
  },
  {
    "formula": "(FGa | FG!a)"
  },
  {
    "formula": "(FGa | FGb)"
  },
  {
    "formula": "(FGa | GFa)"
  },
  {
    "formula": "(FGa | GFb)"
  },
  {
    "formula": "(FGa | XFb)"
  },
  {
    "formula": "(GFa | GFb)"
  },
  {
    "formula": "(((a) U (Ga)) | ((b) U (Gb)))"
  },
  {
    "formula": "(Fa | Fb | FGc)"
  },
  {
    "formula": "(Fa | F(b & c) | FGc)"
  },
  {
    "formula": "(Fa | FGb | FGc)"
  },
  {
    "formula": "((Fa & Gb) | (Fc & Ga) | (Fd & Gc))"
  },
  {
    "formula": "(F(a & b) | FGb | FGc)"
  },
  {
    "formula": "(FGa | FGb | FGc)"
  },
  {
    "formula": "(FGa | FGb | GFc)"
  },
  {
    "formula": "(FGa | GFb | GFc)"
  },
  {
    "formula": "(GFa | GFb | GFc)"
  },
  {
    "formula": "(((a) U (((b) U (c)))) | ((b) U (((c) U (a)))) | ((c) U (((a) U (b)))))"
  },
  {
    "formula": "(Fa | FGb | FGc | FGd)"
  },
  {
    "formula": "(Ga | Gb | FGc | FGd)"
  },
  {
    "formula": "((Fa & Gb) | (Fc & Ga) | (Fd & Gc) | (Fe & Gd))"
  },
  {
    "formula": "(FGa | FGb | FGc | FGd)"
  },
  {
    "formula": "(FGa | FGb | FGc | GFd)"
  },
  {
    "formula": "(GFa | GFb | GFc | GFd)"
  },
  {
    "formula": "(FGa | FGb | FGc | FGd | FGe)"
  },
  {
    "formula": "(FGa | FGb | FGc | FGd | GFe)"
  },
  {
    "formula": "(GFa | GFb | GFc | GFd | GFe)"
  },
  {
    "formula": "(Ga | Gb | Gc | FGd | FGe | FGf)"
  },
  {
    "formula": "(FGa | FGb | FGc | FGd | FGe | GFf)"
  },
  {
    "formula": "(FGa | FGb | FGc | FGd | FGe | FGf | FGg | FGh | FGi)"
  },
  {
    "formula": "(F!a <-> (!a <-> Ga))"
  },
  {
    "formula": "(Ga <-> (!a <-> Ga))"
  },
  {
    "formula": "F(a & Fb)"
  },
  {
    "formula": "F(a & Gb)"
  },
  {
    "formula": "F(a & Xb)"
  },
  {
    "formula": "F(a & ((b) M (c)))"
  },
  {
    "formula": "F(a & ((!a) R (b)))"
  },
  {
    "formula": "F(a & ((b) R (c)))"
  },
  {
    "formula": "F(a & ((b) U (c)))"
  },
  {
    "formula": "F(a & ((b) W (c)))"
  },
  {
    "formula": "F(Ga & ((b) M (c)))"
  },
  {
    "formula": "F(Ga & ((b) R (c)))"
  },
  {
    "formula": "F(Ga & ((b) U (c)))"
  },
  {
    "formula": "F(Ga & ((b) W (c)))"
  },
  {
    "formula": "F(a & b & (c | d | e))"
  },
  {
    "formula": "F(a & b & Xc)"
  },
  {
    "formula": "F(a & b & ((c) M (b)))"
  },
  {
    "formula": "F(a & (b | !c) & (!b | c))"
  },
  {
    "formula": "F(a & Fb & ((c) R (!b)))"
  },
  {
    "formula": "F(a & Gb & Gc)"
  },
  {
    "formula": "F(a & !b & Fb & ((c) R (!b)))"
  },
  {
    "formula": "F(a & (b | !c) & (!b | c) & (d | e | f | g))"
  },
  {
    "formula": "F(a & Gb & Gc & Gd)"
  },
  {
    "formula": "F(a & !b & c & Xa & Xb & Xd)"
  },
  {
    "formula": "FG(a | b)"
  },
  {
    "formula": "G(a | Fb)"
  },
  {
    "formula": "G(a | Gb)",
    "properties": {
      "size": 2,
      "initialStatesSize": 1,
      "acceptanceName": "AllAcceptance",
      "acceptanceSets": 0,
      "complete": false,
      "deterministic": true
    }
  },
  {
    "formula": "G(a | Xb)",
    "properties": {
      "size": 2,
      "initialStatesSize": 1,
      "acceptanceName": "AllAcceptance",
      "acceptanceSets": 0,
      "complete": false,
      "deterministic": true
    }
  },
  {
    "formula": "G(a | ((b) M (c)))"
  },
  {
    "formula": "G(a | ((b) R (c)))",
    "properties": {
      "size": 2,
      "initialStatesSize": 1,
      "acceptanceName": "AllAcceptance",
      "acceptanceSets": 0,
      "complete": false,
      "deterministic": true
    }
  },
  {
    "formula": "G(a | ((b) U (c)))"
  },
  {
    "formula": "G(a | ((b) W (c)))",
    "properties": {
      "size": 2,
      "initialStatesSize": 1,
      "acceptanceName": "AllAcceptance",
      "acceptanceSets": 0,
      "complete": false,
      "deterministic": true
    }
  },
  {
    "formula": "G(!a | ((a) U (b)))"
  },
  {
    "formula": "G(Fa | ((b) M (c)))"
  },
  {
    "formula": "G(Fa | ((b) R (c)))"
  },
  {
    "formula": "G(Fa | ((b) U (c)))"
  },
  {
    "formula": "G(Fa | ((b) W (c)))"
  },
  {
    "formula": "G(a | b | (c & d & e))",
    "properties": {
      "size": 1,
      "initialStatesSize": 1,
      "acceptanceName": "AllAcceptance",
      "acceptanceSets": 0,
      "complete": false,
      "deterministic": true
    }
  },
  {
    "formula": "G(a | b | Xc)",
    "properties": {
      "size": 2,
      "initialStatesSize": 1,
      "acceptanceName": "AllAcceptance",
      "acceptanceSets": 0,
      "complete": false,
      "deterministic": true
    }
  },
  {
    "formula": "G(a | b | ((c) W (b)))",
    "properties": {
      "size": 2,
      "initialStatesSize": 1,
      "acceptanceName": "AllAcceptance",
      "acceptanceSets": 0,
      "complete": false,
      "deterministic": true
    }
  },
  {
    "formula": "G(a | (b & !c) | (!b & c))",
    "properties": {
      "size": 1,
      "initialStatesSize": 1,
      "acceptanceName": "AllAcceptance",
      "acceptanceSets": 0,
      "complete": false,
      "deterministic": true
    }
  },
  {
    "formula": "G(a | Fb | Fc)"
  },
  {
    "formula": "G(a | G!b | ((c) U (b)))"
  },
  {
    "formula": "G(a | b | G!b | ((c) U (b)))"
  },
  {
    "formula": "G(a | (b & !c) | (!b & c) | (d & e & f & g))",
    "properties": {
      "size": 1,
      "initialStatesSize": 1,
      "acceptanceName": "AllAcceptance",
      "acceptanceSets": 0,
      "complete": false,
      "deterministic": true
    }
  },
  {
    "formula": "G(a | Fb | Fc | Fd)"
  },
  {
    "formula": "G(a | b | c | Xa | X!b | Xd)",
    "properties": {
      "size": 2,
      "initialStatesSize": 1,
      "acceptanceName": "AllAcceptance",
      "acceptanceSets": 0,
      "complete": false,
      "deterministic": true
    }
  },
  {
    "formula": "GF(a & b)"
  },
  {
    "formula": "XF(a & b)"
  },
  {
    "formula": "XG(a | b)",
    "properties": {
      "size": 2,
      "initialStatesSize": 1,
      "acceptanceName": "AllAcceptance",
      "acceptanceSets": 0,
      "complete": false,
      "deterministic": true
    }
  },
  {
    "formula": "XXFa"
  },
  {
    "formula": "XXGa",
    "properties": {
      "size": 3,
      "initialStatesSize": 1,
      "acceptanceName": "AllAcceptance",
      "acceptanceSets": 0,
      "complete": false,
      "deterministic": true
    }
  },
  {
    "formula": "((((a) R (Fb))) M (a))"
  },
  {
    "formula": "((a) R ((b | Fc)))"
  },
  {
    "formula": "((a) R ((b | Ga)))",
    "properties": {
      "size": 3,
      "initialStatesSize": 1,
      "acceptanceName": "AllAcceptance",
      "acceptanceSets": 0,
      "complete": false,
      "deterministic": true
    }
  },
  {
    "formula": "((a) R (((b) R (((c) R (d))))))",
    "properties": {
      "size": 8,
      "initialStatesSize": 1,
      "acceptanceName": "AllAcceptance",
      "acceptanceSets": 0,
      "complete": false,
      "deterministic": true
    }
  },
  {
    "formula": "(((Ga & Xb)) R (b))",
    "properties": {
      "size": 3,
      "initialStatesSize": 1,
      "acceptanceName": "AllAcceptance",
      "acceptanceSets": 0,
      "complete": false,
      "deterministic": false
    }
  },
  {
    "formula": "(((F!a | Xb)) R ((Fc & Xa)))"
  },
  {
    "formula": "((((((a) R (b))) R (c))) R (d))",
    "properties": {
      "size": 4,
      "initialStatesSize": 1,
      "acceptanceName": "AllAcceptance",
      "acceptanceSets": 0,
      "complete": false,
      "deterministic": false
    }
  },
  {
    "formula": "((a) U ((b & Fa)))"
  },
  {
    "formula": "((a) U ((b & Gc)))"
  },
  {
    "formula": "((a) U (((b) U (((c) U (d))))))"
  },
  {
    "formula": "(((Ga & Xb)) U ((Gc | X!a)))"
  },
  {
    "formula": "(((Fa | Xb)) U (b))"
  },
  {
    "formula": "((((!a) U (G!a))) U ((a | G!a)))"
  },
  {
    "formula": "((((((a) U (b))) U (c))) U (d))"
  },
  {
    "formula": "((((a) U (Gb))) W (a))"
  },
  {
    "formula": "(a & F(a & ((b) M (!a))))"
  },
  {
    "formula": "(!a & ((b) M ((!a & ((b) M (a))))))"
  },
  {
    "formula": "(Fa & (a | GFb))"
  },
  {
    "formula": "(Fa & (FGb | GFa))"
  },
  {
    "formula": "(Fa & G(!a | Gb))"
  },
  {
    "formula": "(Fa & G(!a | ((b) M (c))))"
  },
  {
    "formula": "(Fa & XXXb)"
  },
  {
    "formula": "(Fa & ((Gb) M ((b | Xb))))"
  },
  {
    "formula": "(Fa & ((((a) R ((a | b)))) R (!a)))"
  },
  {
    "formula": "(Ga & F(b & Xc))"
  },
  {
    "formula": "(Xa & (Ga | ((b) M (Xa))))"
  },
  {
    "formula": "(X!a & (b | Fc | ((((d) R (!b))) U (Xa))))"
  },
  {
    "formula": "(((a) R (b)) & F(c & Xa))"
  },
  {
    "formula": "(FGa & (Ga | ((b) U (Ga))))"
  },
  {
    "formula": "(FGa & (FGb | FGc))"
  },
  {
    "formula": "(FGa & (GFb | GFc | GFd))"
  },
  {
    "formula": "(G(a | b) & GF(b & c))"
  },
  {
    "formula": "(GFa & (F!a | FGb))"
  },
  {
    "formula": "(GFa & (FGb | FGc))"
  },
  {
    "formula": "(GFa & (FGb | GFc))"
  },
  {
    "formula": "(GFa & FG(b | c))"
  },
  {
    "formula": "(GFa & G(a | Xa))"
  },
  {
    "formula": "(GFa & G(a | Xb))"
  },
  {
    "formula": "(GFa & G(b | Xa))"
  },
  {
    "formula": "(GFa & XG(a | b))"
  },
  {
    "formula": "(((X!a) R (!b)) & X((a) U ((a & b))))"
  },
  {
    "formula": "((!a | ((b) U (Xa))) & (Fc | ((b) R (X!a))))"
  },
  {
    "formula": "((FGa | FG!b) & (FG!a | GFb))"
  },
  {
    "formula": "((FGa | GFb) & (FG!a | FG!b))"
  },
  {
    "formula": "((FGa | GFb) & (FGc | GFa))"
  },
  {
    "formula": "((FGa | GFb) & (FGc | GFd))"
  },
  {
    "formula": "((FG!a | GFb) & (FG!b | GFa))"
  },
  {
    "formula": "((FG!a | GF!b) & (FGb | GFa))"
  },
  {
    "formula": "(G(a | Xa) & G(!a | X!a))",
    "properties": {
      "size": 3,
      "initialStatesSize": 1,
      "acceptanceName": "AllAcceptance",
      "acceptanceSets": 0,
      "complete": false,
      "deterministic": true
    }
  },
  {
    "formula": "(G(a | Xb) & G(!a | X!b))",
    "properties": {
      "size": 3,
      "initialStatesSize": 1,
      "acceptanceName": "AllAcceptance",
      "acceptanceSets": 0,
      "complete": false,
      "deterministic": true
    }
  },
  {
    "formula": "(G(a | Xb) & G(c | Xd))",
    "properties": {
      "size": 4,
      "initialStatesSize": 1,
      "acceptanceName": "AllAcceptance",
      "acceptanceSets": 0,
      "complete": false,
      "deterministic": true
    }
  },
  {
    "formula": "(G(a | Xb) & GF(b & c))"
  },
  {
    "formula": "(a & (FGa | FG!a) & (GFa | GFb))"
  },
  {
    "formula": "(Fa & Fb & (FGc | FG!c))"
  },
  {
    "formula": "(Fa & Fb & (GFc | GF!c))"
  },
  {
    "formula": "(Fa & FGb & (Ga | GFb))"
  },
  {
    "formula": "(Ga & FGb & (Fc | XFd))"
  },
  {
    "formula": "(G!a & GFb & G(b | Xa))"
  },
  {
    "formula": "((Ga | Gb | Gc) & (FG!d | GFe | GF!f) & (FGf | GFd | GFe))"
  },
  {
    "formula": "(FGa & FGb & GF(a & b))"
  },
  {
    "formula": "(FGa & GFb & (FGc | GFd))"
  },
  {
    "formula": "(GFa & GFb & (FGc | FGd))"
  },
  {
    "formula": "(GFa & GFb & FG(a | b))"
  },
  {
    "formula": "(GFa & GFb & GF(c & d))"
  },
  {
    "formula": "((FGa | GFb) & (FGc | GFa) & (FGd | GFc))"
  },
  {
    "formula": "((FGa | GFb) & (FGc | GFd) & (FGe | GFf))"
  },
  {
    "formula": "(FG(a | b) & FG(c | d) & FG(e | f))"
  },
  {
    "formula": "(G(a | Xb) & G(c | Xd) & G(e | Xf))",
    "properties": {
      "size": 8,
      "initialStatesSize": 1,
      "acceptanceName": "AllAcceptance",
      "acceptanceSets": 0,
      "complete": false,
      "deterministic": true
    }
  },
  {
    "formula": "(GF(a & b) & GF(c & d) & GF(e & f))"
  },
  {
    "formula": "(FGa & FGb & GFb & GF(a & b))"
  },
  {
    "formula": "(GFa & (a | GFb) & (c | GFd) & (FGa | GFc))"
  },
  {
    "formula": "((FGa | GFb) & (FGc | GFa) & (FGd | GFc) & (FGe | GFd))"
  },
  {
    "formula": "(G(a | Fb) & G(c | Fd) & G(e | Ff) & G(g | Fh))"
  },
  {
    "formula": "(a | ((b) W ((a | ((b) W (!a))))))",
    "properties": {
      "size": 1,
      "initialStatesSize": 1,
      "acceptanceName": "AllAcceptance",
      "acceptanceSets": 0,
      "complete": true,
      "deterministic": true
    }
  },
  {
    "formula": "(!a | G(!a | ((b) W (a))))",
    "properties": {
      "size": 3,
      "initialStatesSize": 2,
      "acceptanceName": "AllAcceptance",
      "acceptanceSets": 0,
      "complete": false,
      "deterministic": false
    }
  },
  {
    "formula": "(Fa | G(b | Xc))"
  },
  {
    "formula": "(Ga | (a & FGb))"
  },
  {
    "formula": "(Ga | (FGa & GFb))"
  },
  {
    "formula": "(Ga | XXXb)",
    "properties": {
      "size": 6,
      "initialStatesSize": 2,
      "acceptanceName": "AllAcceptance",
      "acceptanceSets": 0,
      "complete": false,
      "deterministic": false
    }
  },
  {
    "formula": "(Ga | ((Fb) W ((b & Xb))))"
  },
  {
    "formula": "(G!a | F(a & Fb))"
  },
  {
    "formula": "(G!a | F(a & ((b) W (c))))"
  },
  {
    "formula": "(G!a | ((((!a) U ((!a & b)))) U (a)))"
  },
  {
    "formula": "(Xa | (Fa & ((b) W (Xa))))"
  },
  {
    "formula": "(Xa | (!b & Gc & ((((d) U (b))) R (X!a))))"
  },
  {
    "formula": "(((a) U (b)) | G(c | Xa))"
  },
  {
    "formula": "(F(a & b) | FG(b | c))"
  },
  {
    "formula": "(FGa | (FGb & GFc))"
  },
  {
    "formula": "(FGa | (GFb & GFc))"
  },
  {
    "formula": "(FGa | F(a & Xa))"
  },
  {
    "formula": "(FGa | F(a & Xb))"
  },
  {
    "formula": "(FGa | F(b & Xa))"
  },
  {
    "formula": "(FGa | GF(b & c))"
  },
  {
    "formula": "(FGa | XF(a & b))"
  },
  {
    "formula": "(FG!a | (Ga & GFb))"
  },
  {
    "formula": "(GFa | (Fa & ((b) R (Fa))))"
  },
  {
    "formula": "(GFa | (GFb & GFc))"
  },
  {
    "formula": "(GFa | (FGb & FGc & FGd))"
  },
  {
    "formula": "(((Xa) U (b)) | X((!a) R ((!a | !b))))"
  },
  {
    "formula": "((a & ((b) R (X!a))) | (Gc & ((b) U (Xa))))"
  },
  {
    "formula": "((FGa & GFb) | (FGc & GFa))"
  },
  {
    "formula": "((FGa & GFb) | (FGc & GFd))"
  },
  {
    "formula": "((FG!a & GFb) | (FG!b & GFa))"
  },
  {
    "formula": "((FG!a & GFb) | (GFa & GF!b))"
  },
  {
    "formula": "((FG!a & GF!b) | (FGb & GFa))"
  },
  {
    "formula": "((FG!a & GF!b) | (GFa & GFb))"
  },
  {
    "formula": "(F(a & Xa) | F(!a & X!a))"
  },
  {
    "formula": "(F(a & Xb) | F(!a & X!b))"
  },
  {
    "formula": "(F(a & Xb) | F(c & Xd))"
  },
  {
    "formula": "(F(a & Xb) | FG(b | c))"
  },
  {
    "formula": "(!a | (FG!a & FGb) | (GFa & GF!a))"
  },
  {
    "formula": "(Fa | FGb | F(b & X!a))"
  },
  {
    "formula": "(Fa | GFb | (Gc & XGd))"
  },
  {
    "formula": "(Ga | Gb | (FGc & FG!c))"
  },
  {
    "formula": "(Ga | Gb | (GFc & GF!c))"
  },
  {
    "formula": "(Ga | GFb | (Fa & FGb))"
  },
  {
    "formula": "((Fa & Fb & Fc) | (FG!d & FGe & GF!f) | (FGe & FGf & GFd))"
  },
  {
    "formula": "(FGa | FGb | (GFc & GFd))"
  },
  {
    "formula": "(FGa | FGb | FG(c | d))"
  },
  {
    "formula": "(FGa | FGb | GF(a & b))"
  },
  {
    "formula": "(FGa | GFb | (FGc & GFd))"
  },
  {
    "formula": "(GFa | GFb | FG(a | b))"
  },
  {
    "formula": "((FGa & GFb) | (FGb & GFc) | (FGd & GFa))"
  },
  {
    "formula": "((FGa & GFb) | (FGc & GFd) | (FGe & GFf))"
  },
  {
    "formula": "(F(a & Xb) | F(c & Xd) | F(e & Xf))"
  },
  {
    "formula": "(FG(a | b) | FG(c | d) | FG(e | f))"
  },
  {
    "formula": "(GF(a & b) | GF(c & d) | GF(e & f))"
  },
  {
    "formula": "(FGa | GFa | GFb | FG(a | b))"
  },
  {
    "formula": "(FGa | (a & FGb) | (c & FGd) | (FGc & GFa))"
  },
  {
    "formula": "((FGa & GFb) | (FGb & GFc) | (FGc & GFd) | (FGe & GFa))"
  },
  {
    "formula": "(F(a & Gb) | F(c & Gd) | F(e & Gf) | F(g & Gh))"
  },
  {
    "formula": "(Fa <-> X(Fa | Gb))"
  },
  {
    "formula": "(G!a <-> X(Fa | Gb))"
  },
  {
    "formula": "F(a & (b | ((c) R (d))))"
  },
  {
    "formula": "F(a & G(!a | b))"
  },
  {
    "formula": "F(a & G(b | c))"
  },
  {
    "formula": "F(a & X(!a & b))"
  },
  {
    "formula": "F(a & XGb)"
  },
  {
    "formula": "F(a & XXb)"
  },
  {
    "formula": "F(a & X((a) R (b)))"
  },
  {
    "formula": "F(a & X((b) U (c)))"
  },
  {
    "formula": "F(a & ((b) U ((b & c))))"
  },
  {
    "formula": "F(!a & ((a) R (X!a)))"
  },
  {
    "formula": "F((a | !b) & (Ga | Gb | Gc))"
  },
  {
    "formula": "F(Fa & (Fb | Gb))"
  },
  {
    "formula": "F(((a) U (b)) & (Fc | Ga))"
  },
  {
    "formula": "F((a | Fb) & (c | Fd))"
  },
  {
    "formula": "F((a | Gb) & (c | Gd))"
  },
  {
    "formula": "F((a | ((b) M (!c))) & (!a | ((!b) W (c))))"
  },
  {
    "formula": "F((Fa | Gb) & (((b) M (c)) | ((c) M (d))))"
  },
  {
    "formula": "F(a & b & ((c) M ((b & d))))"
  },
  {
    "formula": "F(a & b & ((b) U ((!a & b))))"
  },
  {
    "formula": "F(a & !b & ((b) M ((b | c))))"
  },
  {
    "formula": "F(a & !b & ((b) R ((b | c))))"
  },
  {
    "formula": "F(a & Gb & XGc)"
  },
  {
    "formula": "F(!a & Xa & X((!a) M (b)))"
  },
  {
    "formula": "F((a | Fb) & (c | Fd) & (e | Ff))"
  },
  {
    "formula": "F((a | Gb) & (b | Ga) & (c | Gd))"
  },
  {
    "formula": "F((a | Gb) & (c | Gd) & (e | Gf))"
  },
  {
    "formula": "F((a | X!a) & (b | Xb) & (!b | X!b))"
  },
  {
    "formula": "F(a & !b & Fb & ((c) R ((!b & d))))"
  },
  {
    "formula": "F(a & b & c & d & e & G(f | g | h | i))"
  },
  {
    "formula": "FG(a | (b & c))"
  },
  {
    "formula": "FG(a | Xb)"
  },
  {
    "formula": "FG(a | ((b) M (!a)))"
  },
  {
    "formula": "FG(a | ((a) R (b)))"
  },
  {
    "formula": "G(a | (b & ((c) U (d))))"
  },
  {
    "formula": "G(a | F(b & c))"
  },
  {
    "formula": "G(a | XFb)"
  },
  {
    "formula": "G(a | XXb)",
    "properties": {
      "size": 4,
      "initialStatesSize": 1,
      "acceptanceName": "AllAcceptance",
      "acceptanceSets": 0,
      "complete": false,
      "deterministic": true
    }
  },
  {
    "formula": "G(a | X((b) R (c)))",
    "properties": {
      "size": 2,
      "initialStatesSize": 1,
      "acceptanceName": "AllAcceptance",
      "acceptanceSets": 0,
      "complete": false,
      "deterministic": true
    }
  },
  {
    "formula": "G(a | X((a) U (b)))"
  },
  {
    "formula": "G(a | ((b) R ((b | c))))",
    "properties": {
      "size": 2,
      "initialStatesSize": 1,
      "acceptanceName": "AllAcceptance",
      "acceptanceSets": 0,
      "complete": false,
      "deterministic": true
    }
  },
  {
    "formula": "G(a | ((!a) U (Xa)))"
  },
  {
    "formula": "G(!a | F(a & b))"
  },
  {
    "formula": "G(!a | X(a | b))",
    "properties": {
      "size": 2,
      "initialStatesSize": 1,
      "acceptanceName": "AllAcceptance",
      "acceptanceSets": 0,
      "complete": false,
      "deterministic": true
    }
  },
  {
    "formula": "G((a & b) | (Fa & F!b & Fc))"
  },
  {
    "formula": "G(Ga | (Fb & Gb))"
  },
  {
    "formula": "G(((a) R (b)) | (Fa & Gc))"
  },
  {
    "formula": "G((a & Fb) | (c & Fd))"
  },
  {
    "formula": "G((a & Gb) | (c & Gd))",
    "properties": {
      "size": 4,
      "initialStatesSize": 1,
      "acceptanceName": "AllAcceptance",
      "acceptanceSets": 0,
      "complete": false,
      "deterministic": false
    }
  },
  {
    "formula": "G((a & ((b) M (!c))) | (!a & ((!b) W (c))))"
  },
  {
    "formula": "G((Fa & Gb) | (((a) W (c)) & ((c) W (d))))"
  },
  {
    "formula": "G(a | b | ((!b) U ((!b & c))))"
  },
  {
    "formula": "G(a | b | ((!b) W ((!b & c))))",
    "properties": {
      "size": 2,
      "initialStatesSize": 1,
      "acceptanceName": "AllAcceptance",
      "acceptanceSets": 0,
      "complete": false,
      "deterministic": true
    }
  },
  {
    "formula": "G(a | b | ((c) W ((b | d))))",
    "properties": {
      "size": 2,
      "initialStatesSize": 1,
      "acceptanceName": "AllAcceptance",
      "acceptanceSets": 0,
      "complete": false,
      "deterministic": true
    }
  },
  {
    "formula": "G(a | Fb | XFc)"
  },
  {
    "formula": "G(a | X!a | X((a) W (b)))",
    "properties": {
      "size": 3,
      "initialStatesSize": 1,
      "acceptanceName": "AllAcceptance",
      "acceptanceSets": 0,
      "complete": false,
      "deterministic": false
    }
  },
  {
    "formula": "G(!a | b | ((b) R ((a | b))))",
    "properties": {
      "size": 2,
      "initialStatesSize": 1,
      "acceptanceName": "AllAcceptance",
      "acceptanceSets": 0,
      "complete": false,
      "deterministic": true
    }
  },
  {
    "formula": "G((a & Fb) | (b & Fa) | (c & Fd))"
  },
  {
    "formula": "G((a & Fb) | (c & Fd) | (e & Ff))"
  },
  {
    "formula": "G((a & Gb) | (c & Gd) | (e & Gf))",
    "properties": {
      "size": 8,
      "initialStatesSize": 1,
      "acceptanceName": "AllAcceptance",
      "acceptanceSets": 0,
      "complete": false,
      "deterministic": false
    }
  },
  {
    "formula": "G((!a & Xa) | (b & Xb) | (!b & X!b))",
    "properties": {
      "size": 5,
      "initialStatesSize": 1,
      "acceptanceName": "AllAcceptance",
      "acceptanceSets": 0,
      "complete": false,
      "deterministic": true
    }
  },
  {
    "formula": "G(a | b | G!b | ((c) U ((b | d))))"
  },
  {
    "formula": "G(a | b | c | d | e | F(f & g & h & i))"
  },
  {
    "formula": "GF(a & (b | c))"
  },
  {
    "formula": "GF(a & Xb)"
  },
  {
    "formula": "GF(a & ((a) U (b)))"
  },
  {
    "formula": "GF(!a & ((b) W (a)))"
  },
  {
    "formula": "XF(a & Gb)"
  },
  {
    "formula": "XF(a & b & ((!b) M (c)))"
  },
  {
    "formula": "XF(a & !b & ((b) M (c)))"
  },
  {
    "formula": "XG(a | Fb)"
  },
  {
    "formula": "XG(a | b | ((!b) W (c)))",
    "properties": {
      "size": 3,
      "initialStatesSize": 1,
      "acceptanceName": "AllAcceptance",
      "acceptanceSets": 0,
      "complete": false,
      "deterministic": true
    }
  },
  {
    "formula": "XG(a | !b | ((b) W (c)))",
    "properties": {
      "size": 3,
      "initialStatesSize": 1,
      "acceptanceName": "AllAcceptance",
      "acceptanceSets": 0,
      "complete": false,
      "deterministic": true
    }
  },
  {
    "formula": "((a) M ((a | b | X((a) R (c)))))"
  },
  {
    "formula": "((((a) R (Xa))) M (((((Ga) M (a))) U (((b) R (c))))))"
  },
  {
    "formula": "((a) R ((b | X((c) R (d)))))",
    "properties": {
      "size": 4,
      "initialStatesSize": 1,
      "acceptanceName": "AllAcceptance",
      "acceptanceSets": 0,
      "complete": false,
      "deterministic": true
    }
  },
  {
    "formula": "((a) R ((F(b & c) | F(b & d) | F(b & e) | F(c & d) | F(c & e) | F(d & e))))"
  },
  {
    "formula": "((a) R (((b) R (((c) R (((d) R (e))))))))",
    "properties": {
      "size": 16,
      "initialStatesSize": 1,
      "acceptanceName": "AllAcceptance",
      "acceptanceSets": 0,
      "complete": false,
      "deterministic": true
    }
  },
  {
    "formula": "((Xa) R (((((Gb) R (c))) W (d))))",
    "properties": {
      "size": 15,
      "initialStatesSize": 1,
      "acceptanceName": "AllAcceptance",
      "acceptanceSets": 0,
      "complete": false,
      "deterministic": false
    }
  },
  {
    "formula": "((((F!a & X!b) | (Ga & Xb))) R ((Fc & Xa)))"
  },
  {
    "formula": "((X((((a) R (b))) U (c))) R (((a) U (c))))"
  },
  {
    "formula": "((((((Fa) W (a))) M (b))) R (((a) U (Xa))))"
  },
  {
    "formula": "((((((((a) R (b))) R (c))) R (d))) R (e))",
    "properties": {
      "size": 5,
      "initialStatesSize": 1,
      "acceptanceName": "AllAcceptance",
      "acceptanceSets": 0,
      "complete": false,
      "deterministic": false
    }
  },
  {
    "formula": "((a) U ((b & X((c) U (d)))))"
  },
  {
    "formula": "((a) U ((G(b | c) & G(b | d) & G(b | e) & G(c | d) & G(c | e) & G(d | e))))"
  },
  {
    "formula": "((a) U (((b) U (((c) U (((d) U (e))))))))"
  },
  {
    "formula": "((Xa) U (((((Fb) U (c))) M (d))))"
  },
  {
    "formula": "((((F!a | X!b) & (Ga | Xb))) U ((Gc | X!a)))"
  },
  {
    "formula": "((X((((a) U (b))) R (c))) U (((a) R (c))))"
  },
  {
    "formula": "((((((((a) U (b))) U (c))) U (d))) U (e))"
  },
  {
    "formula": "((((((Ga) M (a))) W (b))) U (((a) R (Xa))))"
  },
  {
    "formula": "((a) W ((a & b & X((a) U (c)))))"
  },
  {
    "formula": "((((a) U (Xa))) W (((((Fa) W (a))) R (((b) U (c))))))"
  },
  {
    "formula": "(a & F(b & (a | Gb)))"
  },
  {
    "formula": "(Fa & (FGb | (FGa & FGc)))"
  },
  {
    "formula": "(Fa & G(Xb | (b & Fc)))"
  },
  {
    "formula": "(Fa & XF(b & Xc))"
  },
  {
    "formula": "(Fa & (((b & ((a) R ((a | c))))) R (!a)))"
  },
  {
    "formula": "(Ga & (Fb | F(Fb & Ga)))"
  },
  {
    "formula": "(Xa & G(a | X!a | XXa))",
    "properties": {
      "size": 5,
      "initialStatesSize": 1,
      "acceptanceName": "AllAcceptance",
      "acceptanceSets": 0,
      "complete": false,
      "deterministic": true
    }
  },
  {
    "formula": "(((a) R (b)) & F(a & XFc))"
  },
  {
    "formula": "(((!a) R (!b)) & (Gc | ((Fa) W ((b & Xa)))))"
  },
  {
    "formula": "(FGa & G(a | XGa))"
  },
  {
    "formula": "(FGa & GF(a & Xa))"
  },
  {
    "formula": "(FG!a & (F(b & X!a) | F(!b & Xa)))"
  },
  {
    "formula": "(G(a | b) & GF(b & Xc))"
  },
  {
    "formula": "(G(a | b) & GF(c & Xb))"
  },
  {
    "formula": "(GFa & F(b & G(a | c)))"
  },
  {
    "formula": "(GFa & FG(b | Xc))"
  },
  {
    "formula": "(GFa & G(b | F(b & c)))"
  },
  {
    "formula": "(GF!a & G(a | XFb))"
  },
  {
    "formula": "((((a | b)) R (c)) & G(d | (((a | b)) R (c))))",
    "properties": {
      "size": 2,
      "initialStatesSize": 1,
      "acceptanceName": "AllAcceptance",
      "acceptanceSets": 0,
      "complete": false,
      "deterministic": true
    }
  },
  {
    "formula": "((FGa | GFb) & (GFc | (FGd & FGe)))"
  },
  {
    "formula": "((FGa | GFb) & (FGc | GFd | (FGe & GFf)))"
  },
  {
    "formula": "((FG!a | FG!b | FG!c) & (GFc | (GFa & GFb)))"
  },
  {
    "formula": "((FG!a | FG!b | FG!c | FG!d) & (GFc | (GFa & GFb & GFd)))"
  },
  {
    "formula": "((FG!a | FG!b | FG!c | FG!d | FG!e) & (GFc | (GFa & GFb & GFd & GFe)))"
  },
  {
    "formula": "(G(a | Xb) & GF(b & Xc))"
  },
  {
    "formula": "(G(a | Xb) & GF(c & Xa))"
  },
  {
    "formula": "(G(a | Xb) & GF(c & Xb))"
  },
  {
    "formula": "(G(!a | Fb) & (((Xa) U (b)) | X((!a) R ((!a | !b)))))"
  },
  {
    "formula": "(GF(!a & b) & GF(a & Xb))"
  },
  {
    "formula": "(XG(a | b) & GF(c & Xb))"
  },
  {
    "formula": "((Fa | X(F!b & G!a)) & (G!a | X(Fa | Gb)))"
  },
  {
    "formula": "((((a) R (b)) | (FGa & GFb) | (FGc & GFd)) & (((a) R (c)) | (FGa & GFd) | (FGc & GFb)))"
  },
  {
    "formula": "((FGa | XFb | GF(a & c)) & (FGd | XXe | GF(d & f)))"
  },
  {
    "formula": "(FG(a | ((!b) M (!a))) & FG(!a | ((b) W (a))))"
  },
  {
    "formula": "(G(a | XGb) & G(c | XG!b))",
    "properties": {
      "size": 3,
      "initialStatesSize": 1,
      "acceptanceName": "AllAcceptance",
      "acceptanceSets": 0,
      "complete": false,
      "deterministic": true
    }
  },
  {
    "formula": "(G(a | XXb) & G(c | XXd))",
    "properties": {
      "size": 16,
      "initialStatesSize": 1,
      "acceptanceName": "AllAcceptance",
      "acceptanceSets": 0,
      "complete": false,
      "deterministic": true
    }
  },
  {
    "formula": "(GF(a & Xb) & GF(c & Xd))"
  },
  {
    "formula": "(Ga & (GFb | GFc) & G(d | ((!d) U ((b | c)))))"
  },
  {
    "formula": "(FGa & GFb & FG(b | X!a))"
  },
  {
    "formula": "(FGa & GFb & GF(a & Xb))"
  },
  {
    "formula": "(GFa & GF!a & G(a | XFb))"
  },
  {
    "formula": "(GFa & GFb & GF(c & Xd))"
  },
  {
    "formula": "(G(a | XXb) & G(c | XXd) & G(e | XXf))",
    "properties": {
      "size": 64,
      "initialStatesSize": 1,
      "acceptanceName": "AllAcceptance",
      "acceptanceSets": 0,
      "complete": false,
      "deterministic": true
    }
  },
  {
    "formula": "(GF(a & Xb) & GF(c & Xd) & GF(e & Xf))"
  },
  {
    "formula": "(GFa & GFb & (FGc | GFd) & GF(d & X!c))"
  },
  {
    "formula": "(FG(a | X!a) & FG(!a | Xa) & FG(b | X!b) & FG(!b | Xb))"
  },
  {
    "formula": "(G(a | Fb) & G(c | Fd) & G(e | Ff) & G((!b & !d) | (!f & (!b | !d))) & G(a | Xc | F(b & d)) & G(a | Xe | F(b & f)) & G(c | Xe | F(d & f)))"
  },
  {
    "formula": "(FG(a | X!a) & FG(!a | Xa) & FG(b | X!b) & FG(!b | Xb) & FG(c | X!c) & FG(!c | Xc) & FG(d | X!d) & FG(!d | Xd))"
  },
  {
    "formula": "(((a) R (!b)) & ((c) R (!d)) & G(!b | !d) & (GFa | GF!b) & (GFc | GF!d) & G(!a | Fb) & G(!c | Fd) & G(!b | X(a | b) | X((a) R (!b))) & G(!d | X(c | d) | X((c) R (!d))))"
  },
  {
    "formula": "(((a) R (!b)) & ((c) R (!d)) & ((e) R (!f)) & ((g) R (!h)) & (GFa | GF!b) & (GFc | GF!d) & (GFe | GF!f) & (GFg | GF!h) & G(!a | Fb) & G(!c | Fd) & G(!e | Ff) & G(!g | Fh) & G((!b & !d & (!f | !h)) | (!f & !h & (!b | !d))) & G(!b | X(a | b) | X((a) R (!b))) & G(!d | X(c | d) | X((c) R (!d))) & G(!f | X(e | f) | X((e) R (!f))) & G(!h | X(g | h) | X((g) R (!h))))"
  },
  {
    "formula": "(a | G(b | (a & Fb)))"
  },
  {
    "formula": "(Fa | (Gb & G(Fa | Gb)))"
  },
  {
    "formula": "(Ga | (GFb & (GFa | GFc)))"
  },
  {
    "formula": "(Ga | F(Xb & (b | Gc)))"
  },
  {
    "formula": "(Ga | XG(b | Xc))",
    "properties": {
      "size": 4,
      "initialStatesSize": 2,
      "acceptanceName": "AllAcceptance",
      "acceptanceSets": 0,
      "complete": false,
      "deterministic": false
    }
  },
  {
    "formula": "(G!a | (((b | ((!a) U ((!a & c))))) U (a)))"
  },
  {
    "formula": "(X!a | F(!a & Xa & XX!a))"
  },
  {
    "formula": "(((a) U (b)) | (Fc & ((G!a) M ((!b | X!a)))))"
  },
  {
    "formula": "(((a) U (b)) | G(a | XGc))"
  },
  {
    "formula": "(F(a & b) | FG(b | Xc))"
  },
  {
    "formula": "(F(a & b) | FG(c | Xb))"
  },
  {
    "formula": "(FGa | F(!a & XGb))"
  },
  {
    "formula": "(FGa | F(b & G(b | c)))"
  },
  {
    "formula": "(FGa | G(b | F(a & c)))"
  },
  {
    "formula": "(FGa | GF(b & Xc))"
  },
  {
    "formula": "(GFa | (G(b | X!a) & G(!b | Xa)))"
  },
  {
    "formula": "(GFa | F(a & XFa))"
  },
  {
    "formula": "(GFa | FG(a | Xa))"
  },
  {
    "formula": "((((a & b)) U (c)) | F(d & (((a & b)) U (c))))"
  },
  {
    "formula": "((FGa & GFb) | (FGc & (GFd | GFe)))"
  },
  {
    "formula": "((FGa & GFb) | (FGc & GFd & (FGe | GFf)))"
  },
  {
    "formula": "((GFa & GFb & GFc) | (FG!c & (FG!a | FG!b)))"
  },
  {
    "formula": "((GFa & GFb & GFc & GFd) | (FG!c & (FG!a | FG!b | FG!d)))"
  },
  {
    "formula": "((GFa & GFb & GFc & GFd & GFe) | (FG!c & (FG!a | FG!b | FG!d | FG!e)))"
  },
  {
    "formula": "(F(a & G!b) | (((X!a) R (!b)) & X((a) U ((a & b)))))"
  },
  {
    "formula": "(F(a & Xb) | FG(b | Xc))"
  },
  {
    "formula": "(F(a & Xb) | FG(c | Xa))"
  },
  {
    "formula": "(F(a & Xb) | FG(c | Xb))"
  },
  {
    "formula": "(FG(a | b) | FG(!a | Xb))"
  },
  {
    "formula": "(XF(a & b) | FG(c | Xb))"
  },
  {
    "formula": "((Fa & X(F!b & G!a)) | (G!a & X(Fa | Gb)))"
  },
  {
    "formula": "((((a) U (b)) & (FGb | GFa) & (FGc | GFd)) | (((a) U (d)) & (FGb | GFd) & (FGc | GFa)))"
  },
  {
    "formula": "((GFa & XGb & FG(a | c)) | (GFd & XXe & FG(d | f)))"
  },
  {
    "formula": "(F(a & XF!b) | F(c & XFb))"
  },
  {
    "formula": "(F(a & XXb) | F(c & XXd))"
  },
  {
    "formula": "(FG(a | Xb) | FG(c | Xd))"
  },
  {
    "formula": "(GF(a & ((!b) M (!a))) | GF(!a & ((b) W (a))))"
  },
  {
    "formula": "(Fa | (FGb & FGc) | F(!d & ((d) R ((b & c)))))"
  },
  {
    "formula": "(FGa | FG!a | F(!a & XGb))"
  },
  {
    "formula": "(FGa | FGb | FG(c | Xd))"
  },
  {
    "formula": "(FGa | GFb | FG(b | Xa))"
  },
  {
    "formula": "(FGa | GF!b | GF(a & Xb))"
  },
  {
    "formula": "(F(a & XXb) | F(c & XXd) | F(e & XXf))"
  },
  {
    "formula": "(FG(a | Xb) | FG(c | Xd) | FG(e | Xf))"
  },
  {
    "formula": "(FGa | FGb | (FGc & GF!d) | FG(c | Xd))"
  },
  {
    "formula": "(GF(a & X!a) | GF(!a & Xa) | GF(b & X!b) | GF(!b & Xb))"
  },
  {
    "formula": "(F(a & G!b) | F(c & G!d) | F(e & G!f) | F((b | d) & (f | (b & d))) | F(a & Xc & G(!b | !d)) | F(a & Xe & G(!b | !f)) | F(c & Xe & G(!d | !f)))"
  },
  {
    "formula": "(GF(a & X!a) | GF(!a & Xa) | GF(b & X!b) | GF(!b & Xb) | GF(c & X!c) | GF(!c & Xc) | GF(d & X!d) | GF(!d & Xd))"
  },
  {
    "formula": "(((!a) U (b)) | ((!c) U (d)) | F(b & d) | (FG!a & FGb) | (FG!c & FGd) | F(a & G!b) | F(c & G!d) | F(b & X(!a & !b) & X((!a) U (b))) | F(d & X(!c & !d) & X((!c) U (d))))"
  },
  {
    "formula": "(((!a) U (b)) | ((!c) U (d)) | ((!e) U (f)) | ((!g) U (h)) | (FG!a & FGb) | (FG!c & FGd) | (FG!e & FGf) | (FG!g & FGh) | F(a & G!b) | F(c & G!d) | F(e & G!f) | F(g & G!h) | F((b | d | (f & h)) & (f | h | (b & d))) | F(b & X(!a & !b) & X((!a) U (b))) | F(d & X(!c & !d) & X((!c) U (d))) | F(f & X(!e & !f) & X((!e) U (f))) | F(h & X(!g & !h) & X((!g) U (h))))"
  },
  {
    "formula": "F(a & (Ga | Gb | (c & Gd)))"
  },
  {
    "formula": "F(a & F(b & Gc))"
  },
  {
    "formula": "F(a & G(a | Xb))"
  },
  {
    "formula": "F(a & G(b | Ga))"
  },
  {
    "formula": "F(a & G(b | Xb))"
  },
  {
    "formula": "F(a & G(b | Xc))"
  },
  {
    "formula": "F(a & ((!a) R ((b | ((b) R (c))))))"
  },
  {
    "formula": "F(a & ((b) R ((Fc & Fd))))"
  },
  {
    "formula": "F(a & ((b) R (((!b) R ((!b | c))))))"
  },
  {
    "formula": "F(a & ((!b) R (((b) R ((c & d))))))"
  },
  {
    "formula": "F(a & ((a) W ((b & ((b) W (a))))))"
  },
  {
    "formula": "F(a & ((a) W ((b & ((c) W (a))))))"
  },
  {
    "formula": "F(Fa & (Gb | F(b & c)))"
  },
  {
    "formula": "F(Fa & (!a | b | X(!a & b)))"
  },
  {
    "formula": "F(F!a & (a | XF!a))"
  },
  {
    "formula": "F((a | X!a) & ((b & X!b) | (!b & Xb)))"
  },
  {
    "formula": "F((a | Xb) & (b | XGc))"
  },
  {
    "formula": "F((a | XXb) & (b | XXc) & (c | XGd))"
  },
  {
    "formula": "FG(a | XXb)"
  },
  {
    "formula": "FG(Xa | ((a) W (Xa)))"
  },
  {
    "formula": "FG(a | Xb | XXc)"
  },
  {
    "formula": "G(a | (Fa & Fb & (c | Fd)))"
  },
  {
    "formula": "G(a | F(a & Xb))"
  },
  {
    "formula": "G(a | F(b & Fa))"
  },
  {
    "formula": "G(a | F(b & Xb))"
  },
  {
    "formula": "G(a | F(b & Xc))"
  },
  {
    "formula": "G(a | G(b | Fc))"
  },
  {
    "formula": "G(a | ((a) M ((b | ((b) M (a))))))"
  },
  {
    "formula": "G(a | ((a) M ((b | ((c) M (a))))))"
  },
  {
    "formula": "G(a | ((b) U ((Gc | Gd))))"
  },
  {
    "formula": "G(a | ((b) U (((!b) U ((c | d))))))"
  },
  {
    "formula": "G(a | ((!b) U (((b) U ((b & c))))))"
  },
  {
    "formula": "G(!a | ((a) U ((b & ((b) U (c))))))"
  },
  {
    "formula": "G(Ga | (!a & XGa))",
    "properties": {
      "size": 2,
      "initialStatesSize": 1,
      "acceptanceName": "AllAcceptance",
      "acceptanceSets": 0,
      "complete": false,
      "deterministic": true
    }
  },
  {
    "formula": "G(Ga | (Fb & G(b | c)))"
  },
  {
    "formula": "G(G!a | (a & b & X(a | b)))",
    "properties": {
      "size": 3,
      "initialStatesSize": 1,
      "acceptanceName": "AllAcceptance",
      "acceptanceSets": 0,
      "complete": false,
      "deterministic": true
    }
  },
  {
    "formula": "G((a & Xb) | (b & XFc))"
  },
  {
    "formula": "G((!a & Xa) | ((b | X!b) & (!b | Xb)))",
    "properties": {
      "size": 5,
      "initialStatesSize": 1,
      "acceptanceName": "AllAcceptance",
      "acceptanceSets": 0,
      "complete": false,
      "deterministic": true
    }
  },
  {
    "formula": "G((a & XXb) | (b & XXc) | (c & XFd))"
  },
  {
    "formula": "GF(a & XXb)"
  },
  {
    "formula": "GF(Xa & ((a) M (Xa)))"
  },
  {
    "formula": "GF(a & Xb & XXc)"
  },
  {
    "formula": "X((a & FGa) | (!a & GF!a))"
  },
  {
    "formula": "X((a & GF!a) | (!a & FGa))"
  },
  {
    "formula": "XF(a & Fb & ((Xb) R (c)))"
  },
  {
    "formula": "XG(a | Gb | ((Xb) U (c)))"
  },
  {
    "formula": "((a) M (((!a) M (((a) M (((!a) M (Fa))))))))"
  },
  {
    "formula": "((a) R (X(b | XGa)))",
    "properties": {
      "size": 6,
      "initialStatesSize": 1,
      "acceptanceName": "AllAcceptance",
      "acceptanceSets": 0,
      "complete": false,
      "deterministic": true
    }
  },
  {
    "formula": "(((a & Xb)) R (X((((((c) U (d))) R (a))) U (((c) R (a))))))"
  },
  {
    "formula": "((a) U (X(b & XFa)))"
  },
  {
    "formula": "(((a | Xb)) U (X((((((c) R (d))) U (a))) R (((c) U (a))))))"
  },
  {
    "formula": "((!a) W (((a) W (((!a) W (((a) W (G!a))))))))",
    "properties": {
      "size": 5,
      "initialStatesSize": 1,
      "acceptanceName": "AllAcceptance",
      "acceptanceSets": 0,
      "complete": false,
      "deterministic": false
    }
  },
  {
    "formula": "(Fa & ((b) M ((G!a & ((XXb) M (!a))))))"
  },
  {
    "formula": "(Fa & ((b) R ((!a & (b | c | X((b) R (d)))))))"
  },
  {
    "formula": "(Fa & (((!a & b & X((!a) U ((!a & c))))) R ((!a & d))))"
  },
  {
    "formula": "(Ga & G(!b | (((!c | ((b) R (!a)))) U ((b | c)))))"
  },
  {
    "formula": "(Ga & GF(a & XXa))"
  },
  {
    "formula": "(FGa & (Ga | G(Xb | (a & Xa) | (!a & X!a))))"
  },
  {
    "formula": "(GFa & GF(a & XXa))"
  },
  {
    "formula": "((FGa | GFb) & (GFc | FG(d | Xe)))"
  },
  {
    "formula": "((FGa | GFb) & ((FGc & GFd) | (FGe & GFf & (FGg | GFh))))"
  },
  {
    "formula": "((GFa | GFb) & GF(c & XXa))"
  },
  {
    "formula": "(G(a | Fb) & F(b & G(a | Fb)))"
  },
  {
    "formula": "(GF(a & Xb) & GF(c & XXa))"
  },
  {
    "formula": "(FG(a | XXa) & FG(!a | XX!a))"
  },
  {
    "formula": "(G(F(a & b) | (Ga & XGc)) & G(F(d & e) | (Gd & XGf)))"
  },
  {
    "formula": "(GF(a & XXb) & GF(c & XXd))"
  },
  {
    "formula": "(FGa & GFb & GF(a & XXb))"
  },
  {
    "formula": "(GF(!a & b) & GF(a & Xb) & GF(!a & XXb))"
  },
  {
    "formula": "(GF(a & XXb) & GF(c & XXd) & GF(e & XXf))"
  },
  {
    "formula": "(a & Xb & XXc & XXXd & XXXXGe)",
    "properties": {
      "size": 5,
      "initialStatesSize": 1,
      "acceptanceName": "AllAcceptance",
      "acceptanceSets": 0,
      "complete": false,
      "deterministic": true
    }
  },
  {
    "formula": "(G(a | !b | !c) & G(b | d | !e) & G(!b | e | f) & G(!a | (b & c)) & G(!d | (!b & e)) & G(!f | (b & !e)) & G(c | Xb | X!c | Xg) & G(X!g | (!c & X!b & Xc)) & G((a & !g & !h) | (!a & ((g & !h) | (!g & h)))) & G((d & !f & !i) | (!d & ((f & !i) | (!f & i)))))",
    "properties": {
      "size": 3,
      "initialStatesSize": 1,
      "acceptanceName": "AllAcceptance",
      "acceptanceSets": 0,
      "complete": false,
      "deterministic": true
    }
  },
  {
    "formula": "(Fa | FG(a | XXa))"
  },
  {
    "formula": "(F!a | F(b & (((c & ((!b) U (a)))) R ((!b & !c)))))"
  },
  {
    "formula": "(G!a | ((b) U ((a | (b & c & X((b) U (d)))))))"
  },
  {
    "formula": "(G!a | (((a | b | X((a) R ((a | c))))) U ((a | d))))"
  },
  {
    "formula": "(G!a | ((b) W ((Fa | ((XXb) W (a))))))"
  },
  {
    "formula": "(FGa | FG(a | XXa))"
  },
  {
    "formula": "((FGa & FGb) | FG(c | XXa))"
  },
  {
    "formula": "((FGa & GFb) | (FGc & GF(d & Xe)))"
  },
  {
    "formula": "((FGa & GFb) | ((FGc | GFd) & (FGe | GFf | (FGg & GFh))))"
  },
  {
    "formula": "(F(a & Gb) | G(b | F(a & Gb)))"
  },
  {
    "formula": "(FG(a | Xb) | FG(c | XXa))"
  },
  {
    "formula": "(F(G(a | b) & (Fa | XFc)) | F(G(d | e) & (Fd | XFf)))"
  },
  {
    "formula": "(FG(a | XXb) | FG(c | XXd))"
  },
  {
    "formula": "(GF(a & XXa) | GF(!a & XX!a))"
  },
  {
    "formula": "(FGa | GFb | FG(b | XXa))"
  },
  {
    "formula": "(FG(a | b) | FG(!a | Xb) | FG(a | XXb))"
  },
  {
    "formula": "(FG(a | XXb) | FG(c | XXd) | FG(e | XXf))"
  },
  {
    "formula": "(a | Xb | XXc | XXXd | XXXXFe)"
  },
  {
    "formula": "(F(!a & b & c) | F(b & !d & !e) | F(!b & d & !f) | F(a & (!b | !c)) | F(e & (!b | d)) | F(f & (b | !d)) | F(!c & X!b & Xc & X!g) | F(Xg & (c | Xb | X!c)) | F((!a | g | h) & (a | ((g | !h) & (!g | h)))) | F((e | !f | i) & (f | ((e | !i) & (!e | i)))))"
  },
  {
    "formula": "(a <-> (FG(a | ((!b) M (!a))) & FG(!a | ((b) W (a)))))"
  },
  {
    "formula": "(!a <-> (FG(a | ((!b) M (!a))) & FG(!a | ((b) W (a)))))"
  },
  {
    "formula": "((GF(a & Xa) & GF(b & Xb) & GF(c & Xc)) <-> (GF(d & Xd) & GF(e & Xe) & GF(f & Xf)))"
  },
  {
    "formula": "((FG(a | Xa) | FG(b | Xb) | FG(c | Xc)) <-> (GF(d & Xd) & GF(e & Xe) & GF(f & Xf)))"
  },
  {
    "formula": "F(a & F(b & (a | Gc)))"
  },
  {
    "formula": "F(a & G(b | XGc))"
  },
  {
    "formula": "F(a & G(b | c | X((c) R (d))))"
  },
  {
    "formula": "F(a & G(b | Fc | (Fd & Ge)))"
  },
  {
    "formula": "F(a & X(b & XFc))"
  },
  {
    "formula": "F(a & ((b) R (((!b) R ((b | ((c) U (b))))))))"
  },
  {
    "formula": "F(a & !b & (((c & ((b) R ((b | d))))) M (!b)))"
  },
  {
    "formula": "F(a & XFb & XG(!b | Gc))"
  },
  {
    "formula": "F(!a & Xa & X(((!a & Xa)) R ((b | X!b))))"
  },
  {
    "formula": "F(a & !b & Fb & (((c & ((b) R ((b | d))))) R (!b)))"
  },
  {
    "formula": "F(a & b & !c & Xc & X(d & X(b & d)))"
  },
  {
    "formula": "FG(a | XXXb)"
  },
  {
    "formula": "FG((a & Fb) | ((Fc) U ((a & Fc))))"
  },
  {
    "formula": "FG(((a) U (XXb)) | ((c) U (XXd)))"
  },
  {
    "formula": "G(a | F(b & XFc))"
  },
  {
    "formula": "G(a | F(b & c & X((c) U (d))))"
  },
  {
    "formula": "G(a | F(b & Gc & (Fd | Ge)))"
  },
  {
    "formula": "G(a | G(b | (a & Fc)))"
  },
  {
    "formula": "G(a | X(b | XGc))",
    "properties": {
      "size": 3,
      "initialStatesSize": 1,
      "acceptanceName": "AllAcceptance",
      "acceptanceSets": 0,
      "complete": false,
      "deterministic": true
    }
  },
  {
    "formula": "G(a | ((!b) U (((b) U ((!b & ((c) R (!b))))))))"
  },
  {
    "formula": "G(a | b | (((c | ((!b) U ((!b & d))))) W (b)))"
  },
  {
    "formula": "G(a | X!a | X(((a | X!a)) U ((!b & Xb))))"
  },
  {
    "formula": "G(a | XG!b | XF(b & Fc))"
  },
  {
    "formula": "G(((!a) M (F!b)) | (a & G(a | b) & GFb) | (!a & (F(!a & !b) | FG!b)))"
  },
  {
    "formula": "G(a | b | G!b | (((c | ((!b) U ((!b & d))))) U (b)))"
  },
  {
    "formula": "G(a | b | c | X!c | X(d | X(b | d)))",
    "properties": {
      "size": 3,
      "initialStatesSize": 1,
      "acceptanceName": "AllAcceptance",
      "acceptanceSets": 0,
      "complete": false,
      "deterministic": true
    }
  },
  {
    "formula": "GF(a & XXXb)"
  },
  {
    "formula": "GF((a | Gb) & ((Gc) R ((a | Gc))))"
  },
  {
    "formula": "GF(((a) R (XXb)) & ((c) R (XXd)))"
  },
  {
    "formula": "X(a & X(b & XGc))",
    "properties": {
      "size": 4,
      "initialStatesSize": 1,
      "acceptanceName": "AllAcceptance",
      "acceptanceSets": 0,
      "complete": false,
      "deterministic": true
    }
  },
  {
    "formula": "X(a | X(b | XFc))"
  },
  {
    "formula": "((a) M ((a & ((b) M ((b | c | X((b) R (d))))))))"
  },
  {
    "formula": "((((!a) M (((b & XF!a) | (!b & XGa))))) M (!a))"
  },
  {
    "formula": "((XXa) R ((b & (((c) R (XXd)) | ((e) R (XXf)) | ((g) R (XXh))))))",
    "properties": {
      "size": 184,
      "initialStatesSize": 1,
      "acceptanceName": "AllAcceptance",
      "acceptanceSets": 0,
      "complete": false,
      "deterministic": false
    }
  },
  {
    "formula": "((XXa) U ((b | (((c) U (XXd)) & ((e) U (XXf)) & ((g) U (XXh))))))"
  },
  {
    "formula": "((a) W ((a | ((b) W ((b & c & X((b) U (d))))))))"
  },
  {
    "formula": "((((a) W (((b & XGa) | (!b & XF!a))))) W (a))"
  },
  {
    "formula": "(Fa & (((b & ((a) R ((a | c | X((a) R (d))))))) R (!a)))"
  },
  {
    "formula": "(Fa & (((b & X((!a) U (c)) & X((a) R ((!c | Gd))))) R (!a)))"
  },
  {
    "formula": "((FGa | GFb | GFc) & G(b | d | G(a | XFc)))"
  },
  {
    "formula": "((!a | GF(a & ((!b) M (!a))) | GF(!a & ((b) W (a)))) & (a | (FG(a | ((!b) M (!a))) & FG(!a | ((b) W (a))))))"
  },
  {
    "formula": "((FG(!a | X!a) | FG(!b | X!b) | FG(!c | X!c) | FG(!d | X!d) | FG(!e | X!e) | FG(!f | X!f)) & ((GF(a & Xa) & GF(b & Xb) & GF(c & Xc)) | (GF(d & Xd) & GF(e & Xe) & GF(f & Xf))))"
  },
  {
    "formula": "((FGa | GF(b & XXa)) & FG(c | X(b & Xa)))"
  },
  {
    "formula": "(FG(a | XXXa) & FG(!a | XXX!a))"
  },
  {
    "formula": "(a & GFa & (!b | c | F(!a & c) | F(b & d) | F(!b & !d) | (FG!b & FGe) | (FG!d & FGf) | F(b & (e | g) & (!e | !g)) | F(d & (f | g) & (!f | !g)) | F(c & !e & !f & X!b) | F(!a & (b | Xb) & (!b | X!b)) | F(!a & (d | Xd) & (!d | X!d)) | F(c & (b | X!b) & (!b | Xb) & (d | X!d) & (!d | Xd)) | F(!c & ((b & X!b) | (!b & Xb) | (d & X!d) | (!d & Xd)))))"
  },
  {
    "formula": "(a & GFa & (!b | c | F(!a & c) | F(!b & !d & !e & !f) | (FG!b & FGg) | (FG!d & FGh) | (FG!e & FGi) | (FG!f & FGj) | F(b & (g | k) & (!g | !k)) | F(d & (h | k) & (!h | !k)) | F(e & (i | k) & (!i | !k)) | F(f & (j | k) & (!j | !k)) | F(c & !g & !h & !i & !j & X!b) | F((b | d | (e & f)) & (e | f | (b & d))) | F(!a & (b | Xb) & (!b | X!b)) | F(!a & (d | Xd) & (!d | X!d)) | F(!a & (e | Xe) & (!e | X!e)) | F(!a & (f | Xf) & (!f | X!f)) | F(c & (b | X!b) & (!b | Xb) & (d | X!d) & (!d | Xd) & (e | X!e) & (!e | Xe) & (f | X!f) & (!f | Xf)) | F(!c & ((b & X!b) | (!b & Xb) | (d & X!d) | (!d & Xd) | (e & X!e) | (!e & Xe) | (f & X!f) | (!f & Xf)))))"
  },
  {
    "formula": "(GFa & FG(b | Xc) & GF(d & XXXe))"
  },
  {
    "formula": "(GF(!a & b) & GF(a & Xb) & GF(!a & XXb) & GF(a & XXXb))"
  },
  {
    "formula": "(G((a & !b & !c) | (!a & ((b & !c) | (!b & c)))) & G((!d & e & !f) | (!e & ((d & !f) | (!d & f)))) & G((!g & h & !i) | (!h & ((g & !i) | (!g & i)))) & (F(a & Xj) | F(b & Xk) | (G(!j | Fa) & G(!j | ((!b) W (k))) & G(!k | Fb) & G(!k | ((!a) W (j))) & G(j | k | Fa | Fb) & G((l & Xm) | X(!d | !g)) & G((l & X!m) | X(!e | !h)) & G(!l | Xm | X(e & h)) & G(!l | X!m | X(d & g)))))"
  },
  {
    "formula": "(G!a | (((b | ((!a) U ((!a & c & X((!a) U (d))))))) U (a)))"
  },
  {
    "formula": "(G!a | (((b | X((a) R (!c)) | X((!a) U ((c & Fd))))) U (a)))"
  },
  {
    "formula": "(GF!a | (F!a & F(Xb & ((a & X!a) | (!a & Xa)))))"
  },
  {
    "formula": "((FGa & FGb & GFc) | F(a & d & F(c & XGb)))"
  },
  {
    "formula": "((a & FG(a | ((!b) M (!a))) & FG(!a | ((b) W (a)))) | (!a & (GF(a & ((!b) M (!a))) | GF(!a & ((b) W (a))))))"
  },
  {
    "formula": "((GF(a & Xa) & GF(b & Xb) & GF(c & Xc) & GF(d & Xd) & GF(e & Xe) & GF(f & Xf)) | ((FG(!a | X!a) | FG(!b | X!b) | FG(!c | X!c)) & (FG(!d | X!d) | FG(!e | X!e) | FG(!f | X!f))))"
  },
  {
    "formula": "((GFa & FG(b | XXa)) | GF(c & X(b | Xa)))"
  },
  {
    "formula": "(GF(a & XXXa) | GF(!a & XXX!a))"
  },
  {
    "formula": "(!a | FG!a | (b & !c & G(a | !c) & G(b | d) & G(!b | !d) & (GFb | GF!e) & (GFd | GF!f) & G(!b | (e & g) | (!e & !g)) & G(!d | (f & g) | (!f & !g)) & G(!c | e | f | Xb) & G(a | (b & Xb) | (!b & X!b)) & G(a | (d & Xd) | (!d & X!d)) & G(!c | (b & X!b) | (!b & Xb) | (d & X!d) | (!d & Xd)) & G(c | ((b | X!b) & (!b | Xb) & (d | X!d) & (!d | Xd)))))"
  },
  {
    "formula": "(!a | FG!a | (b & !c & G(a | !c) & G(b | d | e | f) & (GFb | GF!g) & (GFd | GF!h) & (GFe | GF!i) & (GFf | GF!j) & G(!b | (g & k) | (!g & !k)) & G(!d | (h & k) | (!h & !k)) & G(!e | (i & k) | (!i & !k)) & G(!f | (j & k) | (!j & !k)) & G(!c | g | h | i | j | Xb) & G((!b & !d & (!e | !f)) | (!e & !f & (!b | !d))) & G(a | (b & Xb) | (!b & X!b)) & G(a | (d & Xd) | (!d & X!d)) & G(a | (e & Xe) | (!e & X!e)) & G(a | (f & Xf) | (!f & X!f)) & G(!c | (b & X!b) | (!b & Xb) | (d & X!d) | (!d & Xd) | (e & X!e) | (!e & Xe) | (f & X!f) | (!f & Xf)) & G(c | ((b | X!b) & (!b | Xb) & (d | X!d) & (!d | Xd) & (e | X!e) & (!e | Xe) & (f | X!f) & (!f | Xf)))))"
  },
  {
    "formula": "(FGa | GF(b & Xc) | FG(d | XXXe))"
  },
  {
    "formula": "(FG(a | b) | FG(!a | Xb) | FG(a | XXb) | FG(!a | XXXb))"
  },
  {
    "formula": "(F((!a | b | c) & (a | ((b | !c) & (!b | c)))) | F((d | !e | f) & (e | ((d | !f) & (!d | f)))) | F((g | !h | i) & (h | ((g | !i) & (!g | i)))) | (G(!a | X!j) & G(!b | X!k) & (F(j & G!a) | F(j & ((b) M (!k))) | F(k & G!b) | F(k & ((a) M (!j))) | F(!j & !k & G!a & G!b) | F((!l | Xm) & X(e & h)) | F((!l | X!m) & X(d & g)) | F(l & Xm & X(!d | !g)) | F(l & X!m & X(!e | !h)))))"
  },
  {
    "formula": "(Fa | Fb | Fc | XF!b | X(Xa | ((b) U (((!b) U (((b) U ((a | d)))))))))"
  },
  {
    "formula": "F(a & F(b & (c | XGd)))"
  },
  {
    "formula": "F(a & F(b & (c | d | X((d) R (e)))))"
  },
  {
    "formula": "F(a & ((b) M ((c & (b | d | X((b) R (e)))))))"
  },
  {
    "formula": "F(a & ((!a) R ((b | ((b) R ((c | ((c) R (d)))))))))"
  },
  {
    "formula": "F(a & ((b) R (((!b) R (((b) R (((!b) R ((!b | c))))))))))"
  },
  {
    "formula": "F(((a) W (Gb)) & ((!a & G(a | b) & GFb) | (a & (F(!a & !b) | FG!b))))"
  },
  {
    "formula": "F(a & Fb & ((c) R ((!b & (c | d | X((c) R (e)))))))"
  },
  {
    "formula": "F(a & Fb & (((!b & c & X((!b) U ((!b & d))))) R ((!b & e))))"
  },
  {
    "formula": "F(a & F!b & ((b) R ((c & (b | d | X((b) R (e)))))))"
  },
  {
    "formula": "F(a & F(b & XFc) & (((b & d & X((d) U ((c & d))))) R ((d & e))))"
  },
  {
    "formula": "F(a & F(b & XFc) & (((b & Gd & XF(c & d))) R ((d & e))))"
  },
  {
    "formula": "F(!a & Xa & X((!a) R ((!a | b | X(!a | !b)))))"
  },
  {
    "formula": "F(a & b & !c & Xc & X(Xb & ((c) R (((!c) R ((b & d)))))))"
  },
  {
    "formula": "G(a | G(b | (c & XFd)))"
  },
  {
    "formula": "G(a | G(b | (c & d & X((d) U (e)))))"
  },
  {
    "formula": "G(a | ((!b) U (((b) U (((!b) U (((b) U ((b & c))))))))))"
  },
  {
    "formula": "G(a | ((b) W ((c | (b & d & X((b) U (e)))))))"
  },
  {
    "formula": "G(!a | ((a) U ((b & ((b) U ((c & ((c) U (d)))))))))"
  },
  {
    "formula": "G(a | Gb | ((!b) U ((c | (!b & d & X((!b) U (e)))))))"
  },
  {
    "formula": "G(a | G!b | ((c) U ((b | (c & d & X((c) U (e)))))))"
  },
  {
    "formula": "G(a | G!b | (((b | c | X((b) R ((b | d))))) U ((b | e))))"
  },
  {
    "formula": "G(a | X!a | X((a) U ((a & !b & X(a & b)))))"
  },
  {
    "formula": "G(a | G(b | XGc) | (((b | d | X((d) R ((c | d))))) U ((d | e))))"
  },
  {
    "formula": "G(a | G(b | XGc) | (((b | Fd | XG(c | d))) U ((d | e))))"
  },
  {
    "formula": "G(a | b | c | X!c | X(Xb | ((!c) U (((c) U ((b | d)))))))"
  },
  {
    "formula": "((a) M ((!a | (((b) R (c)) & F(b & XFd)))))"
  },
  {
    "formula": "((a) M ((!a | ((b) M (((!b) M (((b) M (((!b) M (Fb)))))))))))"
  },
  {
    "formula": "((!a) M (((!b & GFa & G(b | Xa)) | (b & (FG!a | F(!b & X!a))))))"
  },
  {
    "formula": "((a) R ((!b | !c | ((Gb) M (((c | d) & (!d | ((!c) R ((a | !c))))))))))"
  },
  {
    "formula": "((a) U ((b & c & ((F!b) W (((!c & !d) | (d & ((c) U ((a & c))))))))))"
  },
  {
    "formula": "((a) W (((b & GFa & G(b | Xa)) | (!b & (FG!a | F(!b & X!a))))))"
  },
  {
    "formula": "((!a) W ((a & (((b) U (c)) | G(b | XGd)))))"
  },
  {
    "formula": "((!a) W ((a & ((!b) W (((b) W (((!b) W (((b) W (G!b)))))))))))",
    "properties": {
      "size": 6,
      "initialStatesSize": 1,
      "acceptanceName": "AllAcceptance",
      "acceptanceSets": 0,
      "complete": false,
      "deterministic": false
    }
  },
  {
    "formula": "(Fa & (((b & ((a) R ((a | c | d | X(((a | d)) R (e))))))) R (!a)))"
  },
  {
    "formula": "((FGa | GF(b & XXc)) & (GFc | FG(d | X(b & Xa))))"
  },
  {
    "formula": "(FG(a | XXXXa) & FG(!a | XXXX!a))"
  },
  {
    "formula": "(a & GFa & (!b | c | F(!a & c) | F(!b & !d & !e & !f & !g & !h) | (FG!b & FGi) | (FG!d & FGj) | (FG!e & FGk) | (FG!f & FGl) | (FG!g & FGm) | (FG!h & FGn) | F(c & !i & !j & !k & !l & !m & !n & X!b) | F(b & ((i & !o) | (!i & o))) | F(d & ((j & !o) | (!j & o))) | F(e & ((k & !o) | (!k & o))) | F(f & ((l & !o) | (!l & o))) | F(g & ((m & !o) | (!m & o))) | F(h & ((n & !o) | (!n & o))) | F(c & (b | X!b) & (!b | Xb) & (d | X!d) & (!d | Xd) & (e | X!e) & (!e | Xe) & (f | X!f) & (!f | Xf) & (g | X!g) & (!g | Xg) & (h | X!h) & (!h | Xh)) | F(!a & ((b & X!b) | (!b & Xb))) | F(!a & ((d & X!d) | (!d & Xd))) | F(!a & ((e & X!e) | (!e & Xe))) | F(!a & ((f & X!f) | (!f & Xf))) | F(!a & ((g & X!g) | (!g & Xg))) | F(!a & ((h & X!h) | (!h & Xh))) | F(!c & ((b & X!b) | (!b & Xb) | (d & X!d) | (!d & Xd) | (e & X!e) | (!e & Xe) | (f & X!f) | (!f & Xf) | (g & X!g) | (!g & Xg) | (h & X!h) | (!h & Xh))) | F((b | d | e | ((f | g) & (h | (f & g)))) & (f | g | h | ((b | d) & (e | (b & d)))))))"
  },
  {
    "formula": "(G((a & !b & !c) | (!a & ((b & !c) | (!b & c)))) & G((d & !e & !f) | (!d & ((e & !f) | (!e & f)))) & G((g & !h & !i) | (!g & ((h & !i) | (!h & i)))) & (((j) M (!d)) | F(k & l) | F(d & X((!j) M (!f))) | F(f & X((j) M (!d))) | (G(a | !j) & G(!a | j) & G(b | j) & G(!b | !j) & G(i | !l) & G(!i | l) & G(h | !j | !k) & G(!h | (j & k)) & G(!k | (j & X!j) | (!j & Xj)) & G(k | ((j | X!j) & (!j | Xj))))))"
  },
  {
    "formula": "(G!a | (((b | ((!a) U ((!a & c & d & X(((!a & d)) U (e))))))) U (a)))"
  },
  {
    "formula": "((GFa & FG(b | XXc)) | (FGc & GF(d & X(b | Xa))))"
  },
  {
    "formula": "(GF(a & XXXXa) | GF(!a & XXXX!a))"
  },
  {
    "formula": "(!a | FG!a | (b & !c & G(a | !c) & G(b | d | e | f | g | h) & (GFb | GF!i) & (GFd | GF!j) & (GFe | GF!k) & (GFf | GF!l) & (GFg | GF!m) & (GFh | GF!n) & G(!b | (i & o) | (!i & !o)) & G(!d | (j & o) | (!j & !o)) & G(!e | (k & o) | (!k & !o)) & G(!f | (l & o) | (!l & !o)) & G(!g | (m & o) | (!m & !o)) & G(!h | (n & o) | (!n & !o)) & G(!c | i | j | k | l | m | n | Xb) & G(a | (b & Xb) | (!b & X!b)) & G(a | (d & Xd) | (!d & X!d)) & G(a | (e & Xe) | (!e & X!e)) & G(a | (f & Xf) | (!f & X!f)) & G(a | (g & Xg) | (!g & X!g)) & G(a | (h & Xh) | (!h & X!h)) & G(!c | (b & X!b) | (!b & Xb) | (d & X!d) | (!d & Xd) | (e & X!e) | (!e & Xe) | (f & X!f) | (!f & Xf) | (g & X!g) | (!g & Xg) | (h & X!h) | (!h & Xh)) & G(c | ((b | X!b) & (!b | Xb) & (d | X!d) & (!d | Xd) & (e | X!e) & (!e | Xe) & (f | X!f) & (!f | Xf) & (g | X!g) & (!g | Xg) & (h | X!h) & (!h | Xh))) & G((!b & !d & !e & ((!f & !g) | (!h & (!f | !g)))) | (!f & !g & !h & ((!b & !d) | (!e & (!b | !d)))))))"
  },
  {
    "formula": "(F((!a | b | c) & (a | ((b | !c) & (!b | c)))) | F((!d | e | f) & (d | ((e | !f) & (!e | f)))) | F((!g | h | i) & (g | ((h | !i) & (!h | i)))) | (((!j) W (d)) & G(!k | !l) & G(!d | X((j) W (f))) & G(!f | X((!j) W (d))) & (F(a & !j) | F(!a & j) | F(b & j) | F(!b & !j) | F(i & !l) | F(!i & l) | F(!h & j & k) | F(h & (!j | !k)) | F(k & (j | X!j) & (!j | Xj)) | F(!k & ((j & X!j) | (!j & Xj))))))"
  },
  {
    "formula": "(a <-> (FG(!a | b | ((c) W (a))) & FG(a | (!b & ((!c) M (!a)))) & (Gc | (G(!a | b | ((c) W (a))) & G(a | (!b & ((!c) M (!a))))))))"
  },
  {
    "formula": "(!a <-> (FG(!a | b | ((c) W (a))) & FG(a | (!b & ((!c) M (!a)))) & (Gc | (G(!a | b | ((c) W (a))) & G(a | (!b & ((!c) M (!a))))))))"
  },
  {
    "formula": "F(a & F(b & XFc & XG(!c | Gd)))"
  },
  {
    "formula": "F(a & ((!a) R (((b) R ((!a | ((!a) R ((c | ((c) R (!a)))))))))))"
  },
  {
    "formula": "F(a & Fb & (((c & ((b) R ((b | d | X((b) R (e))))))) R (!b)))"
  },
  {
    "formula": "F(a & Fb & (((c & X((!b) U (d)) & X((b) R ((!d | Ge))))) R (!b)))"
  },
  {
    "formula": "F(!a & Xa & X(Xb & ((!a) R (((a) R (((!a) R ((b & c)))))))))"
  },
  {
    "formula": "F(a & b & !c & Xc & X(Xb & ((!c) R (((c) R (((!c) R ((b & d)))))))))"
  },
  {
    "formula": "G(a | G(b | XG!c | XF(c & Fd)))"
  },
  {
    "formula": "G(!a | ((a) U (((b) U ((a & ((a) U ((c & ((c) U (a)))))))))))"
  },
  {
    "formula": "G(a | G!b | (((c | ((!b) U ((!b & d & X((!b) U (e))))))) U (b)))"
  },
  {
    "formula": "G(a | G!b | (((c | X((b) R (!d)) | X((!b) U ((d & Fe))))) U (b)))"
  },
  {
    "formula": "G(a | X!a | X(Xb | ((a) U (((!a) U (((a) U ((b | c)))))))))"
  },
  {
    "formula": "G(a | b | c | X!c | X(Xb | ((c) U (((!c) U (((c) U ((b | d)))))))))"
  },
  {
    "formula": "((!a | GF(a & !b & ((!c) M (!a))) | GF(!a & (b | ((c) W (a)))) | (F!c & (F(a & !b & ((!c) M (!a))) | F(!a & (b | ((c) W (a))))))) & (a | (FG(!a | b | ((c) W (a))) & FG(a | (!b & ((!c) M (!a)))) & (Gc | (G(!a | b | ((c) W (a))) & G(a | (!b & ((!c) M (!a)))))))))"
  },
  {
    "formula": "(G((a & !b) | (!a & b)) & G((c & !d & !e) | (!c & ((d & !e) | (!d & e)))) & G((f & !g & !h) | (!f & ((g & !h) | (!g & h)))) & (!i | !j | F(k & l) | F(m & n) | F(c & o & X!i) | F(d & p & X!i) | F(f & q & X!j) | F(g & r & X!j) | F(h & j & X!j) | (Gi & Gj & G(b | !s) & G(!b | s) & G(!k | (((c & n & o) | (!c & (!n | !o))) & ((d & m & p) | (!d & (!m | !p))))) & G(!l | (((f & n & q) | (!f & (!n | !q))) & ((g & m & r) | (!g & (!m | !r))))))))"
  },
  {
    "formula": "(G((a & !b) | (!a & b)) & G((c & !d & !e) | (!c & ((d & !e) | (!d & e)))) & G((f & !g & !h) | (!f & ((g & !h) | (!g & h)))) & (!i | !j | F(k & l) | F(m & n) | F(c & o & X!i) | F(d & p & X!i) | F(e & i & X!i) | F(f & q & X!j) | F(g & r & X!j) | F(h & j & X!j) | (Gi & Gj & G(b | !s) & G(!b | s) & G(!k | (((c & n & o) | (!c & (!n | !o))) & ((d & m & p) | (!d & (!m | !p))))) & G(!l | (((f & n & q) | (!f & (!n | !q))) & ((g & m & r) | (!g & (!m | !r))))))))"
  },
  {
    "formula": "((a & FG(!a | b | ((c) W (a))) & FG(a | (!b & ((!c) M (!a)))) & (Gc | (G(!a | b | ((c) W (a))) & G(a | (!b & ((!c) M (!a))))))) | (!a & (GF(a & !b & ((!c) M (!a))) | GF(!a & (b | ((c) W (a)))) | (F!c & (F(a & !b & ((!c) M (!a))) | F(!a & (b | ((c) W (a)))))))))"
  },
  {
    "formula": "(F((a | !b) & (!a | b)) | F((!c | d | e) & (c | ((d | !e) & (!d | e)))) | F((!f | g | h) & (f | ((g | !h) & (!g | h)))) | (i & j & G(!k | !l) & G(!m | !n) & G(!c | !o | Xi) & G(!d | !p | Xi) & G(!f | !q | Xj) & G(!g | !r | Xj) & G(!h | !j | Xj) & (F!i | F!j | F(b & !s) | F(!b & s) | F(k & (((!c | !n | !o) & (c | (n & o))) | ((!d | !m | !p) & (d | (m & p))))) | F(l & (((!f | !n | !q) & (f | (n & q))) | ((!g | !m | !r) & (g | (m & r))))))))"
  },
  {
    "formula": "(F((a | !b) & (!a | b)) | F((!c | d | e) & (c | ((d | !e) & (!d | e)))) | F((!f | g | h) & (f | ((g | !h) & (!g | h)))) | (i & j & G(!k | !l) & G(!m | !n) & G(!c | !o | Xi) & G(!d | !p | Xi) & G(!e | !i | Xi) & G(!f | !q | Xj) & G(!g | !r | Xj) & G(!h | !j | Xj) & (F!i | F!j | F(b & !s) | F(!b & s) | F(k & (((!c | !n | !o) & (c | (n & o))) | ((!d | !m | !p) & (d | (m & p))))) | F(l & (((!f | !n | !q) & (f | (n & q))) | ((!g | !m | !r) & (g | (m & r))))))))"
  },
  {
    "formula": "F(a & (((b & ((c) R ((c | d | X((c) R (e))))))) R ((!c & F(b & (d | XGe))))))"
  },
  {
    "formula": "F(a & (((b & (((c | X((d) R (e)))) W (d)))) R ((!d & F(b & (c | XGe))))))"
  },
  {
    "formula": "F(a & (((b & ((c) R ((c | d | e | X(((c | e)) R (f))))))) R ((!c & F(b & (d | e | X((e) R (f))))))))"
  },
  {
    "formula": "F(a & (((b & (((c | d | X(((d | e)) R (f)))) W (e)))) R ((!e & F(b & (c | d | X((d) R (f))))))))"
  },
  {
    "formula": "F((((a | Xa) & (!a | X!a)) | ((b | Xb) & (!b | X!b)) | ((c | Xc) & (!c | X!c)) | ((d | Xd) & (!d | X!d))) & X(e | (((((a | Xa) & (!a | X!a)) | ((b | Xb) & (!b | X!b)) | ((c | Xc) & (!c | X!c)) | ((d | Xd) & (!d | X!d)))) R (!e))))"
  },
  {
    "formula": "F(a & Fb & (((c & ((b) R ((b | d | e | X(((b | e)) R (f))))))) R (!b)))"
  },
  {
    "formula": "G(a | (((b | (((c & X((!d) U (e)))) M (!d)))) U ((d | G(b | (c & XFe))))))"
  },
  {
    "formula": "G(a | (((b | ((!c) U ((!c & d & X((!c) U (e))))))) U ((c | G(b | (d & XFe))))))"
  },
  {
    "formula": "G(a | (((b | (((c & d & X(((d & !e)) U (f)))) M (!e)))) U ((e | G(b | (c & d & X((d) U (f))))))))"
  },
  {
    "formula": "G(a | (((b | ((!c) U ((!c & d & e & X(((!c & e)) U (f))))))) U ((c | G(b | (d & e & X((e) U (f))))))))"
  },
  {
    "formula": "G((((a & Xa) | (!a & X!a)) & ((b & Xb) | (!b & X!b)) & ((c & Xc) | (!c & X!c)) & ((d & Xd) | (!d & X!d))) | X(!e & (((((a & Xa) | (!a & X!a)) & ((b & Xb) | (!b & X!b)) & ((c & Xc) | (!c & X!c)) & ((d & Xd) | (!d & X!d)))) U (e))))"
  },
  {
    "formula": "G(a | G!b | (((c | ((!b) U ((!b & d & e & X(((!b & e)) U (f))))))) U (b)))"
  },
  {
    "formula": "(Fa & (((a | b)) R ((!a & (((a | !b)) R ((!a & (((a | b)) R ((!a & (((a | !b)) R ((!a & ((b) R (!a)))))))))))))))"
  },
  {
    "formula": "(G!a | (((!a & !b)) U ((a | (((!a & b)) U ((a | (((!a & !b)) U ((a | (((!a & b)) U ((a | ((!b) U (a)))))))))))))))"
  },
  {
    "formula": "F(a & (((b & X((!c) U (d)) & X((c) R ((!d | Ge))))) R ((!c & F(b & X((!c) U (d)) & X((c) R ((!d | Ge))))))))"
  },
  {
    "formula": "G(a | (((b | X((c) R (!d)) | X((!c) U ((d & Fe))))) U ((c | G(b | X((c) R (!d)) | X((!c) U ((d & Fe))))))))"
  },
  {
    "formula": "XX(G(!a | X(b & ((Fa) U (c))) | X(!b & ((G!a) R (!c)))) & G(a | X((b | ((Fa) U (c))) & (!b | ((G!a) R (!c))))))"
  },
  {
    "formula": "XX(F(a & X(b | ((Fa) U (c))) & X(!b | ((G!a) R (!c)))) | F(!a & X((b & ((Fa) U (c))) | (!b & ((G!a) R (!c))))))"
  },
  {
    "formula": "F(a & (((b | c)) R ((!c & (((!b | c)) R ((!c & (((b | c)) R ((!c & (((!b | c)) R ((!c & F!b & ((b) M (!c)))))))))))))))"
  },
  {
    "formula": "F((!a | Xa) & X((!a) R ((!a | b | X(!a | !b | ((!a) R ((!a | b | X(!a | !b)))))))))"
  },
  {
    "formula": "F((!a | Xa) & X(((b | X(!b | (((b | X(!a | !b))) W (!a))))) W (!a)))"
  },
  {
    "formula": "F(a & Fb & (((b | c)) R ((!b & (((b | !c)) R ((!b & (((b | c)) R ((!b & (((b | !c)) R ((!b & ((c) R (!b)))))))))))))))"
  },
  {
    "formula": "F(a & X!a & X((a) R ((a | b | X(a | !b | ((a) R ((a | b | X(a | !b)))))))))"
  },
  {
    "formula": "F(!a & Xa & X((!a) R ((!a | b | X(!a | !b | ((!a) R ((!a | b | X(!a | !b)))))))))"
  },
  {
    "formula": "G(a | (((!b & !c)) U ((c | (((b & !c)) U ((c | (((!b & !c)) U ((c | (((b & !c)) U ((c | Gb | ((!b) W (c)))))))))))))))"
  },
  {
    "formula": "G((a & X!a) | X(((!b & X(b & (((!b & X(a & b))) M (a))))) M (a)))"
  },
  {
    "formula": "G((a & X!a) | X((a) U ((a & !b & X(a & b & ((a) U ((a & !b & X(a & b)))))))))"
  },
  {
    "formula": "G(a | G!b | (((!b & !c)) U ((b | (((!b & c)) U ((b | (((!b & !c)) U ((b | (((!b & c)) U ((b | ((!c) U (b)))))))))))))))"
  },
  {
    "formula": "G(a | X!a | X((a) U ((a & !b & X(a & b & ((a) U ((a & !b & X(a & b)))))))))"
  },
  {
    "formula": "G(!a | Xa | X((!a) U ((!a & !b & X(!a & b & ((!a) U ((!a & !b & X(!a & b)))))))))"
  },
  {
    "formula": "((a) R ((b | X(c | G(d | XG(e | XG(f | XGg)))))))",
    "properties": {
      "size": 12,
      "initialStatesSize": 1,
      "acceptanceName": "AllAcceptance",
      "acceptanceSets": 0,
      "complete": false,
      "deterministic": false
    }
  },
  {
    "formula": "((a) U ((b & X(c & F(d & XF(e & XF(f & XFg)))))))"
  },
  {
    "formula": "F(a & X!a & X((a) R ((a | b | X(a | !b | ((a) R ((a | b | X(a | !b | ((a) R ((a | b | X(a | !b)))))))))))))"
  },
  {
    "formula": "G(!a | Xa | X((!a) U ((!a & !b & X(!a & b & ((!a) U ((!a & !b & X(!a & b & ((!a) U ((!a & !b & X(!a & b)))))))))))))"
  },
  {
    "formula": "(!a & !b & !c & !d & !e & G(!b | c) & G(!d | e) & G(!f | !g) & GFa & G(f | g | !h | XF!i) & (h | j | k | !l | !m | n | !o | F(!a & Xl) | F(!n & ((n) M (!e))) | F(!c & !e & o & X!m) | (FGc & FG(j | k)) | (FGe & FG(j | !k)) | F(!j & k & ((e & !i) | (!e & i))) | F(!j & !k & ((c & !i) | (!c & i))) | F(a & ((p & X!h) | (!p & Xh))) | F(!o & ((p & X!p) | (!p & Xp))) | F(!o & ((m & X!m) | (!m & Xm) | (n & X!n) | (!n & Xn))) | F(o & Xm & ((b & X!p) | (!b & Xp))) | F(o & Xn & ((d & X!p) | (!d & Xp))) | F(!f & !g & h & l & X((l) M ((i | l)))) | F(a & ((m & X(j | k)) | (!m & X(!j & !k)))) | F(a & ((n & X(j | !k)) | (!n & X(!j & k)))) | F(X!l & ((h & X!h) | (!h & Xh) | ((j | k) & X(!j & !k)) | (!j & !k & X(j | k)))) | F(X!l & ((h & X!h) | (!h & Xh) | ((j | !k) & X(!j & k)) | (!j & k & X(j | !k)))) | F(a & f & !g & h & l & X((l) M ((!a | l | X((l) M ((!a | l | X((l) M ((!a | l)))))))))) | F(!a & f & !g & h & l & X((l) M ((!a | l | X((l) M ((!a | l | X((l) M ((!a | l | X((l) M ((!a | l)))))))))))))))"
  },
  {
    "formula": "(a | b | c | d | e | F(b & !c) | F(d & !e) | F(f & g) | FG!a | F(!f & !g & h & XGi) | (!h & !j & !k & l & m & !n & o & G(a | X!l) & G(n | ((!n) W (e))) & G(c | e | !o | Xm) & G(j | k | (c & i) | (!c & !i)) & G(j | !k | (e & i) | (!e & !i)) & (GF!c | GF(!j & !k)) & (GF!e | GF(!j & k)) & G(!a | (p & Xh) | (!p & X!h)) & G(o | (p & Xp) | (!p & X!p)) & G(!o | X!m | (b & Xp) | (!b & X!p)) & G(!o | X!n | (d & Xp) | (!d & X!p)) & G(!a | (m & X(!j & !k)) | (!m & X(j | k))) & G(!a | (n & X(!j & k)) | (!n & X(j | !k))) & G(f | g | !h | !l | X((!l) W ((!i & !l)))) & G(o | (((m & Xm) | (!m & X!m)) & ((n & Xn) | (!n & X!n)))) & G(Xl | (((h & Xh) | (!h & X!h)) & (((j | k) & X(j | k)) | (!j & !k & X(!j & !k))))) & G(Xl | (((h & Xh) | (!h & X!h)) & (((j | !k) & X(j | !k)) | (!j & k & X(!j & k))))) & G(!a | !f | g | !h | !l | X((!l) W ((a & !l & X((!l) W ((a & !l & X((!l) W ((a & !l)))))))))) & G(a | !f | g | !h | !l | X((!l) W ((a & !l & X((!l) W ((a & !l & X((!l) W ((a & !l & X((!l) W ((a & !l)))))))))))))))"
  },
  {
    "formula": "F(a & X(a & X(a & X(a & X(a & X(a & X(a & X(a & X(a & X(a & X(a & Xa)))))))))))"
  },
  {
    "formula": "G(a | X(a | X(a | X(a | X(a | X(a | X(a | X(a | X(a | X(a | X(a | Xa)))))))))))",
    "properties": {
      "size": 12,
      "initialStatesSize": 1,
      "acceptanceName": "AllAcceptance",
      "acceptanceSets": 0,
      "complete": false,
      "deterministic": true
    }
  }
]